MODULE FoxInterpreter; (** AUTHOR ""; PURPOSE ""; *)

IMPORT Scanner := FoxScanner, FoxParser, SyntaxTree := FoxSyntaxTree, Printout := FoxPrintout, Commands, Diagnostics, StringPool, InterpreterSymbols := FoxInterpreterSymbols, D:= Debugging,
	Strings, Streams, Modules, PersistentObjects, Basic := FoxBasic, SYSTEM, Machine, Global := FoxGlobal, Heaps;

CONST
	EnableTrace = FALSE;
	MaxIndex = 8;

TYPE
	Result*= InterpreterSymbols.Result;
	Value*=InterpreterSymbols.Value;
	Integer*=InterpreterSymbols.IntegerValue;
	Real*=InterpreterSymbols.RealValue;
	String*=InterpreterSymbols.StringValue;
	Boolean*=InterpreterSymbols.BooleanValue;
	Set*=InterpreterSymbols.SetValue;
	Range*=InterpreterSymbols.RangeValue;
	Char*=InterpreterSymbols.CharValue;
	Any*=InterpreterSymbols.AnyValue;
	MathArrayValue*= InterpreterSymbols.MathArrayValue;

	Scope*=InterpreterSymbols.Scope;
	Container*= InterpreterSymbols.Container;

	Builtin*=OBJECT (InterpreterSymbols.Object)
	VAR id: SIGNED32;
	END Builtin;

	Item*= RECORD
		object*: InterpreterSymbols.Item;
		in*: InterpreterSymbols.Item;
		name*: StringPool.Index;
		i*: ARRAY MaxIndex OF SIGNED32; (* indices if applicable *)
	END;

	CommandStatement = OBJECT (SyntaxTree.Предписание)
	VAR command: Strings.String;

		PROCEDURE & InitCommandStatement(s: Strings.String);
		BEGIN
			command := s
		END InitCommandStatement;

	END CommandStatement;

	PrintStatement = OBJECT (SyntaxTree.Предписание)
	VAR expression: SyntaxTree.Выражениеˉзначение;

		PROCEDURE & InitPrintStatement(e: SyntaxTree.Выражениеˉзначение);
		BEGIN
			expression := e;
		END InitPrintStatement;

	END PrintStatement;

	Parser*= OBJECT(FoxParser.Parser)

		PROCEDURE {OVERRIDE}Statement*(statements: SyntaxTree.ПоследовательностьПредписаний; outer: SyntaxTree.Предписание): BOOLEAN;
		VAR statement: SyntaxTree.Предписание;
		BEGIN
			IF (Symbol() = Scanner.ExclamationMark) THEN
				statement := Cmd();
				IF statement # NIL THEN
					statements.ДобПредписание(statement);
				END;
				RETURN TRUE
			ELSIF (Symbol() = Scanner.Questionmark) THEN
				statement := Print();
				IF statement # NIL THEN
					statements.ДобПредписание(statement);
				END;
				RETURN TRUE
			ELSE
				RETURN Statement^(statements, outer);
			END;
		END Statement;

		PROCEDURE Cmd(): SyntaxTree.Предписание;
		VAR cmd: CommandStatement; string: Scanner.Token;
		BEGIN
			NextToken;
			IF MandatoryString(string) THEN
			NEW(cmd, string.string);
			(* TRACE(string^) *)
			END;
			RETURN cmd;
		END Cmd;

		PROCEDURE Print(): SyntaxTree.Предписание;
		VAR print: PrintStatement;
		BEGIN
			NextToken;
			NEW(print, SELF.Expression());
			RETURN print;
		END Print;

	END Parser;

	Interpreter* = OBJECT (SyntaxTree.Посетитель)
	VAR
		value: BOOLEAN;
		item-: Item;
		module-: Modules.Module;
		typeDesc-: Modules.TypeDesc;
		scope-: Scope;
		exit: BOOLEAN;
		error-: BOOLEAN;
		diagnostics: Diagnostics.Diagnostics;
		context-: Commands.Context;

		PROCEDURE & Init*(l0scope: Scope; l1diagnostics: Diagnostics.Diagnostics; l2context: Commands.Context);
		BEGIN
			IF l0scope = NIL THEN l0scope := global END;
			SELF.scope := l0scope;
			error := FALSE;
			SELF.diagnostics := l1diagnostics;
			SELF.context := l2context;
		END Init;

		PROCEDURE SetScope*(s: Scope);
		BEGIN
			scope := s
		END SetScope;

		PROCEDURE Reset*;
		BEGIN
			error := FALSE;
		END Reset;

		PROCEDURE Error(CONST msg: ARRAY OF CHAR);
		BEGIN
			IF error THEN RETURN END;
			(*! use diagnostics *)
			error := TRUE;
			Basic.Error(diagnostics, "", Basic.invalidPosition, msg);
			D.TraceBack;
		END Error;

		PROCEDURE ErrorSS(CONST msg: ARRAY OF CHAR; id: StringPool.Index);
		VAR name: ARRAY 128 OF CHAR; message: ARRAY 256 OF CHAR;
		BEGIN
			IF error THEN RETURN END;
			(*! use diagnostics *)
			error := TRUE;
			COPY(msg, message);
			IF id # 0 THEN Strings.Append(message," "); StringPool.GetString(id, name); Strings.Append(message, name); END;
			Basic.Error(diagnostics, "", Basic.invalidPosition, message);
		END ErrorSS;

		(** syntax tree types omitted -- unused *)

		(** expressions *)

		PROCEDURE {OVERRIDE}ПосетиВыражˉзначениеКонструкторБайта*(x: SyntaxTree.ВыражˉзначениеКонструкторБайта);
		VAR s: SET; i: SIZE; l3value: Value;
		BEGIN
			FOR i := 0 TO x.состав.Длина()-1 DO
				IF GetValue(x.состав.ДайВыражение(i), l3value) THEN
					IF l3value IS Integer THEN INCL(s, SIGNED32(l3value(Integer).value))
					ELSIF l3value IS Range THEN s := s + SET({FIRST(l3value(Range).value)..LAST(l3value(Range).value)})
					ELSE Error("wrong value type")
					END;
				END;
			END;
			NewSet(s)
		END ПосетиВыражˉзначениеКонструкторБайта;

		PROCEDURE {OVERRIDE}ПосетиВыражˉзначениеКонструкторМатМассива*(x: SyntaxTree.ВыражˉзначениеКонструкторМатМассива);
		VAR numberElements, i: SIZE; a: MathArrayValue;
		BEGIN
			numberElements := x.состав.Длина();
			NEW(a, numberElements);
			FOR i := 0 TO numberElements-1 DO
				l19Expression(x.состав.ДайВыражение(i));
				a.SetValue(i,item.object(Value));
			END;
			item.object := a; value := TRUE;
		END ПосетиВыражˉзначениеКонструкторМатМассива;

		PROCEDURE NewInt(i: SIGNED64);
		VAR v: Integer;
		BEGIN
			NEW(v, i); item.object := v; value := TRUE
		END NewInt;

		PROCEDURE NewReal(i: FLOAT64);
		VAR v: Real;
		BEGIN
			NEW(v, i); item.object := v; value := TRUE
		END NewReal;

		PROCEDURE NewBool(b: BOOLEAN);
		VAR v: Boolean;
		BEGIN
			NEW(v, b); item.object := v; value := TRUE;
		END NewBool;

		PROCEDURE NewSet(s: SET);
		VAR v: Set;
		BEGIN
			NEW(v, s); item.object := v; value := TRUE;
		END NewSet;

		PROCEDURE NewString(CONST s: ARRAY OF CHAR);
		VAR v: String;
		BEGIN
			NEW(v, s); item.object := v; value := TRUE;
		END NewString;

		PROCEDURE NewRange(r: RANGE);
		VAR v: Range;
		BEGIN
			NEW(v, r ); item.object := v; value := TRUE;
		END NewRange;

		PROCEDURE NewChar(l4c: CHAR);
		VAR v: Char;
		BEGIN
			NEW(v, l4c); item.object := v; value := TRUE;
		END NewChar;

		PROCEDURE {OVERRIDE}ПосетиВыражˉзначениеУнарнаяОперация*(x: SyntaxTree.ВыражˉзначениеУнарнаяОперация);
		VAR l5value: Value; i: SIGNED64; r: FLOAT64; b: BOOLEAN; operator: SIGNED32;
		BEGIN
			operator := x.Операция;
			IF ~GetValue(x.операнд, l5value) THEN
				Error("no operand");
				RETURN
			END;
			IF l5value IS Integer THEN
				i := l5value(Integer).value;
				CASE operator OF
				Scanner.Minus: NewInt(-i)
				|Scanner.Plus: NewInt(i)
				ELSE Error("unary operator not supported")
				END;
			ELSIF l5value IS Real THEN
				r := l5value(Real).value;
				CASE operator OF
				Scanner.Minus: NewReal(-r)
				|Scanner.Plus: NewReal(r)
				ELSE Error("unary operator not supported")
				END;
			ELSIF l5value IS Boolean THEN
				b := l5value(Boolean).value;
				CASE operator OF
				Scanner.Not: NewBool(~b)
				ELSE Error("unary operator not supported")
				END;
			ELSIF l5value IS Set THEN
				CASE operator OF
				Scanner.Minus: NewSet(-l5value(Set).value)
				ELSE Error("unary operator not supported")
				END;
			ELSE
				Error("unary operation not supported");
			END;
		END ПосетиВыражˉзначениеУнарнаяОперация;

		PROCEDURE {OVERRIDE}ПосетиВыражˉзначениеБинарнаяОперация*(x: SyntaxTree.ВыражˉзначениеБинарнаяОперация);
		VAR left, right: Value; operator: SIGNED32; li, ri: SIGNED64; lr, rr: FLOAT64; lb, rb:  BOOLEAN; sl, sr: SET;
		BEGIN
			operator := x.Операция;
			IF ~GetValue(x.лев, left) OR ~GetValue(x.прав, right) THEN RETURN END;

			IF (left IS Integer) & (right IS Integer) THEN
				li := left(Integer).value; ri := right(Integer).value;
				CASE operator OF
				|Scanner.Plus: NewInt(li+ri)
				|Scanner.Minus: NewInt(li-ri);
				|Scanner.Times: NewInt(li * ri);
				|Scanner.Div: NewInt(li DIV ri);
				|Scanner.Mod: NewInt(li MOD ri);
				|Scanner.Equal: NewBool(li = ri);
				|Scanner.Unequal: NewBool(li # ri)
				|Scanner.Less: NewBool(li < ri)
				|Scanner.LessEqual: NewBool(li <= ri)
				|Scanner.Greater: NewBool(li > ri)
				|Scanner.GreaterEqual: NewBool(li >= ri)
				|Scanner.Slash: NewReal(li/ri)
				ELSE Error("binary operator not supported")
				END;
			ELSIF ((left IS Integer) OR (left IS Real)) & ((right IS Integer) OR (right IS Real)) THEN
				IF left IS Integer THEN lr := left(Integer).value
				ELSE lr := left(Real).value
				END;
				IF right IS Integer THEN rr := right(Integer).value;
				ELSE rr := right(Real).value
				END;
				CASE operator OF
				|Scanner.Plus: NewReal(lr+rr)
				|Scanner.Minus: NewReal(lr-rr);
				|Scanner.Times: NewReal(lr * rr);
				|Scanner.Slash: NewReal(lr / rr);
				|Scanner.Equal: NewBool(lr = rr);
				|Scanner.Unequal: NewBool(lr # rr)
				|Scanner.Less: NewBool(lr < rr)
				|Scanner.LessEqual: NewBool(lr <= rr)
				|Scanner.Greater: NewBool(lr > rr)
				|Scanner.GreaterEqual: NewBool(lr >= rr)
				ELSE Error("binary operator not supported")
				END;
			ELSIF (left IS Boolean) & (right IS Boolean) THEN
				lb := left(Boolean).value; rb := right(Boolean).value;
				CASE operator OF
				|Scanner.Or: NewBool(lb OR rb);
				|Scanner.And1: NewBool(lb & rb);
				|Scanner.Equal: NewBool(lb = rb)
				|Scanner.Unequal: NewBool(lb # rb)
				ELSE Error("operator not supported")
				END;
			ELSIF (left IS String) & (right IS String) THEN
				CASE operator OF
				|Scanner.Equal: NewBool(left(String).value^ = right(String).value^);
				|Scanner.Unequal: NewBool(left(String).value^ = right(String).value^);
				|Scanner.Less: NewBool(left(String).value^ < right(String).value^);
				|Scanner.LessEqual: NewBool(left(String).value^ <= right(String).value^);
				|Scanner.Greater: NewBool(left(String).value^ > right(String).value^);
				|Scanner.GreaterEqual: NewBool(left(String).value^ >= right(String).value^);
				ELSE Error("binary operator not supported")
				END
			ELSIF (left IS Set) & (right IS Set) THEN
				sl := left(Set).value; sr := right(Set).value;
				CASE operator OF
				|Scanner.Plus: NewSet(sl+sr)
				|Scanner.Minus: NewSet(sl-sr);
				|Scanner.Times: NewSet(sl * sr);
				|Scanner.Slash: NewSet(sl / sr);
				|Scanner.Equal: NewBool(sl = sr);
				|Scanner.Unequal: NewBool(sl # sr)
				|Scanner.Less: NewBool(sl < sr)
				|Scanner.LessEqual: NewBool(sl <= sr)
				|Scanner.Greater: NewBool(sl > sr)
				|Scanner.GreaterEqual: NewBool(sl >= sr)
				ELSE Error("binary operator not supported")
				END;
			ELSIF (left IS Integer) & (right IS Set) THEN
				CASE operator OF
				Scanner.In: NewBool(left(Integer).value IN right(Set).value)
				ELSE Error("binary operator not supported")
				END;
			ELSE
				Error("binary operation not supported");
				Printout.Info("binary operation", x);
			END;
		END ПосетиВыражˉзначениеБинарнаяОперация;

		PROCEDURE {OVERRIDE}ПосетиВыражˉзначениеКонструкторДиапазона*(x: SyntaxTree.ВыражˉзначениеКонструкторДиапазона);
		VAR first,last,step: SIGNED64; l6value: Integer;
		BEGIN
			IF ~ExpectInteger(x.первое, l6value) THEN RETURN END;
			first := l6value.value;
			IF ~ExpectInteger(x.последнее, l6value) THEN RETURN END;
			last := l6value.value;
			IF (x.Шаг # NIL) & ExpectInteger(x.Шаг, l6value) THEN
				step := l6value.value;
			ELSE
				step := 1
			END;
			NewRange(first ..last BY step);
		END ПосетиВыражˉзначениеКонструкторДиапазона;

		PROCEDURE {OVERRIDE}ПосетиВыражˉзначениеКонструкторТензорногоДиапазона*(x: SyntaxTree.ВыражˉзначениеКонструкторТензорногоДиапазона);
		BEGIN HALT(100) (* abstract *) END ПосетиВыражˉзначениеКонструкторТензорногоДиапазона;

		PROCEDURE {OVERRIDE}ПосетиВыражˉзначениеПреобразованиеТипа*(x: SyntaxTree.ВыражˉзначениеПреобразованиеТипа);
		BEGIN HALT(100) (* abstract *) END ПосетиВыражˉзначениеПреобразованиеТипа;

		(** designators (expressions) *)
		PROCEDURE {OVERRIDE}ПосетиВыражˉобращение*(x: SyntaxTree.Выражˉобращение);
		BEGIN HALT(100) (* abstract *) END ПосетиВыражˉобращение;

		PROCEDURE {OVERRIDE}ПосетиВыражˉтипИзРодаТиповˉНаименований*(x: SyntaxTree.ВыражˉтипИзРодаТиповˉНаименований);
		VAR moduleName, name: Modules.Name;
		BEGIN
			IF x.составнойИдентификатор.начало # SyntaxTree.образцовыйНеверныйИдентификатор THEN
				item.name := x.составнойИдентификатор.начало;
				item.object := scope.FindObject1(item.name, -1, item.in);

				IF item.object = NIL THEN
					StringPool.GetString(item.name, moduleName);
					item.object :=InterpreterSymbols.GetModule(moduleName);
				END;
			END;
			item.name := x.составнойИдентификатор.конец;
			IF (item.object # NIL) THEN
				IF item.object IS Result THEN
					StringPool.GetString(item.name, name);
					item.object := item.object(Result).Find(name);
				ELSE
					item.in := item.object;
					item.object := InterpreterSymbols.FindInObject1(item.object, item.name,-1);
				END;
			ELSE
				ErrorSS("invalid selector",item.name);
				item.in := NIL;
			END;

		END ПосетиВыражˉтипИзРодаТиповˉНаименований;

		(*
		PROCEDURE FindInScope(scope: Scope; symbol: StringPool.Index): Value;
		VAR item: Value;
		BEGIN
			REPEAT
				item := scope.Find1(symbol);

				IF (item = NIL) THEN
					scope := scope.outer
				ELSE
					scope := NIL
				END;
			UNTIL (scope = NIL);
			RETURN item
		END FindInScope;
		*)

(*
		PROCEDURE FindType(CONST types: POINTER TO ARRAY OF Modules.TypeDesc; CONST name: ARRAY OF CHAR): Modules.TypeDesc;
		VAR i: SIGNED32;
		BEGIN
		IF types = NIL THEN RETURN NIL END;
		FOR i := 0 TO LEN(types)-1 DO
			IF types[i].name = name THEN
				RETURN types[i];
			END;
		END;
		RETURN NIL;
		END FindType;

		PROCEDURE FindProc(CONST types: POINTER TO ARRAY OF Modules.ProcedureEntry; CONST name: ARRAY OF CHAR; VAR num: SIGNED32): BOOLEAN;
		BEGIN
		IF types = NIL THEN RETURN FALSE END;
		FOR num := 0 TO LEN(types)-1 DO
			IF types[num].name^ = name THEN
				RETURN TRUE;
			END;
		END;
			RETURN FALSE;
		END FindProc;

		PROCEDURE FindField(CONST types: POINTER TO ARRAY OF Modules.FieldEntry; CONST name: ARRAY OF CHAR; VAR num: SIGNED32): BOOLEAN;
		BEGIN
		IF types = NIL THEN RETURN FALSE END;
		FOR num := 0 TO LEN(types)-1 DO
			IF types[num].name^ = name THEN
				RETURN TRUE;
			END;
		END;
			RETURN FALSE;
		END FindField;

*)

		PROCEDURE {OVERRIDE}ПосетиОбращение˛разобранноеКакОбрК_имени*(x: SyntaxTree.Обращение˛разобранноеКакОбрК_имени);
		VAR moduleName: Modules.Name; msg: ARRAY 128 OF CHAR; res: INTEGER;
			builtin : Builtin; anyValue: Any;
		BEGIN
			ASSERT(x.лев = NIL);
			item.name := x.идентификатор;
			(*
			item.object := FindInScope(item.scope, item.name);
			*)
			IF item.name = Basic.MakeString("trace") THEN
				NEW(builtin); builtin.id :=  Global.systemTrace;
				item.object := builtin;
			ELSIF item.name = Basic.MakeString("context") THEN
				NEW(anyValue, context);
				item.object :=  anyValue;
			ELSE

				item.object := scope.FindObject1(item.name, -1, item.in);

				IF item.object = NIL THEN
					StringPool.GetString(item.name, moduleName);
					item.object :=InterpreterSymbols.GetModule(moduleName);
				END;
			END;
		END ПосетиОбращение˛разобранноеКакОбрК_имени;

		PROCEDURE {OVERRIDE}ПосетиОбращение˛разобранноеКакОбрК_члену*(x: SyntaxTree.Обращение˛разобранноеКакОбрК_члену);
		VAR traverse: BOOLEAN; name: ARRAY 128 OF CHAR; num: SIGNED32;
		BEGIN
			l19Expression(x.лев); traverse := FALSE;
			IF error THEN RETURN END;
			item.name := x.идентификатор;
			IF (item.object # NIL) THEN
				IF item.object IS Result THEN
					StringPool.GetString(item.name, name);
					item.object := item.object(Result).Find(name);
				ELSE
					item.in := item.object;
					item.object := InterpreterSymbols.FindInObject1(item.object, x.идентификатор,-1);
				END;
			ELSE
				ErrorSS("invalid selector",item.name);
				item.in := NIL;
			END;
		END ПосетиОбращение˛разобранноеКакОбрК_члену;

		PROCEDURE {OVERRIDE}ПосетиОбращение˛разобранноеКакВызовВ_круглСкобках*(x: SyntaxTree.Обращение˛разобранноеКакВызовВ_круглСкобках);
		VAR e: SyntaxTree.Выражениеˉзначение; proc: InterpreterSymbols.ProcedureResult; i: SIZE;
			adr: ADDRESS; adrValue: Value; any: InterpreterSymbols.AnyValue;
		BEGIN
			e := x.лев;
			l19Expression(e);
			IF (item.object # NIL) THEN
				IF (item.object IS InterpreterSymbols.ProcedureResult) THEN
					proc := item.object(InterpreterSymbols.ProcedureResult);
					(* self pointer *)
					proc.Pars();
					IF ~(proc.caller IS InterpreterSymbols.ModuleResult) THEN
						adrValue := proc.caller.Evaluate();
						ASSERT(adrValue.GetAddress(adr));
						proc.PushAddress(adr);
					END;
					(* result pointer *)
					IF proc.ReturnsPointer() THEN
						NEW(any,NIL);
						proc.PushAddress(any.Address());
					END;
					FOR i := 0 TO x.параметры.Длина()-1 DO
						e := x.параметры.ДайВыражение(i);
						IF ~proc.Push(Designate(e)) THEN Error("wrong parameter"); RETURN END;
					END;
					IF ~proc.Check() THEN Error("non-matching parameter number"); RETURN END;
					item.object := proc.Evaluate();
					IF any # NIL THEN item.object := any END;
				ELSIF (item.object IS Builtin) THEN
					CASE item.object(Builtin).id OF
					Global.systemTrace:
						SystemTrace(x.параметры);
					ELSE
						Error("no builtin?")
					END;
				ELSE
						Error("no procedure")
				END;
			ELSE
				Error("no procedure")
			END;
		END ПосетиОбращение˛разобранноеКакВызовВ_круглСкобках;

		PROCEDURE {OVERRIDE}ПосетиОбращение˛разобранноеКакОбрЧерезКарет*(x: SyntaxTree.Обращение˛разобранноеКакОбрЧерезКарет);
		BEGIN HALT(100) (* abstract *) END ПосетиОбращение˛разобранноеКакОбрЧерезКарет;

		PROCEDURE {OVERRIDE}ПосетиОбращение˛разобранноеКакОбрК_элтуВ_квадрСкобках*(x: SyntaxTree.Обращение˛разобранноеКакОбрК_элтуВ_квадрСкобках);
		VAR array: MathArrayValue; i: SIZE; element: Value; index: Integer; obj: PersistentObjects.Object;
			leftValue, rightValue: Value; filter: InterpreterSymbols.ObjectFilter; expression: SyntaxTree.Выражениеˉзначение;
			attribute, l7value: ARRAY 128 OF CHAR; val: SIGNED32;
		BEGIN
			l19Expression(x.лев);
			IF (item.object # NIL) & (item.object IS MathArrayValue) THEN
				element := item.object(MathArrayValue);
				FOR i := 0 TO x.параметры.Длина()-1 DO
					array := element(MathArrayValue);
					IF GetInteger(x.параметры.ДайВыражение(i), index) THEN
						element := array.GetValue(SIGNED32(index.value));
					END;
				END;
				item.object := element;
			ELSIF (item.object # NIL) THEN
				NEW(filter); obj := item.object;
				FOR i := 0 TO x.параметры.Длина()-1 DO
					expression := x.параметры.ДайВыражение(i);
					IF (expression IS SyntaxTree.ВыражˉзначениеБинарнаяОперация) & (expression(SyntaxTree.ВыражˉзначениеБинарнаяОперация).Операция = Scanner.Equal) THEN
						IF (expression(SyntaxTree.ВыражˉзначениеБинарнаяОперация).лев IS SyntaxTree.Обращение˛разобранноеКакОбрК_имени) &
						GetValue(expression(SyntaxTree.ВыражˉзначениеБинарнаяОперация).прав, rightValue) THEN
							StringPool.GetString(
							expression(SyntaxTree.ВыражˉзначениеБинарнаяОперация).лев(SyntaxTree.Обращение˛разобранноеКакОбрК_имени).идентификатор, attribute);
							rightValue(Value).GetString(l7value);
							obj := filter.Filter(obj, attribute, l7value)
						ELSE HALT(200)
						END;
					ELSE
						IF GetValue(expression, leftValue) THEN
							IF leftValue IS String THEN
								leftValue(Value).GetString(l7value);
								obj := filter.Filter(obj, "name", l7value);
							ELSIF leftValue IS Integer THEN
								IF obj IS PersistentObjects.ObjectList THEN
									item.object := obj(PersistentObjects.ObjectList).GetElement(SIGNED32(leftValue(Integer).value))
								ELSIF obj IS Container THEN
									item.object := obj(Container).GetItem(SIGNED32(leftValue(Integer).value))
								ELSE Error("cannot be indexed")
								END;
							END;
						END;
					END;
				END;
				IF obj(Container).symbols.Length() > 0 THEN
					item.object := obj(Container).GetItem(0);
				ELSE
					Error("no such symbol")
				END;
			END;
		END ПосетиОбращение˛разобранноеКакОбрК_элтуВ_квадрСкобках;

		PROCEDURE {OVERRIDE}ПосетиОбращение˛осмысленноеКакОбрК_именованнойСущности*(x: SyntaxTree.Обращение˛осмысленноеКакОбрК_именованнойСущности);
		BEGIN HALT(100) (* abstract *) END ПосетиОбращение˛осмысленноеКакОбрК_именованнойСущности;

		PROCEDURE {OVERRIDE}ПосетиОбращение˛осмысленноеКакОбрПоИндексу*(x: SyntaxTree.Обращение˛осмысленноеКакОбрПоИндексу);
		BEGIN HALT(100) (* abstract *) END ПосетиОбращение˛осмысленноеКакОбрПоИндексу;

		PROCEDURE {OVERRIDE}ПосетиОбращение˛осмысленноеКакВызовПроцедуры*(x: SyntaxTree.Обращение˛осмысленноеКакВызовПроцедуры);
		BEGIN HALT(100)
		END ПосетиОбращение˛осмысленноеКакВызовПроцедуры;

		PROCEDURE SystemTrace(x: SyntaxTree.СписокВыражˉзначенийЧерезЗапятую);
		VAR
			printout: Printout.Printer;
			l8value: Value;
			expression: SyntaxTree.Выражениеˉзначение;
			i: SIZE;
			out: Streams.Writer;
		BEGIN
			out := context.out;
			printout := Printout.NewPrinter(out,Printout.SourceCode,FALSE,FALSE,Scanner.ВариантыПеревода.Uppercase);
			FOR i := 0 TO x.Длина()-1 DO
				expression := x.ДайВыражение(i);
				IF ~(expression IS SyntaxTree.Значение˛известноеВоВремяКомпиляции˛строковое) THEN
					printout.Expression(expression);
					out.String("= ");
				END;
				l8value := Evaluate(expression);
				IF l8value # NIL THEN
					l8value.WriteValue(out);
				ELSE
					out.String("UNKNOWN")
				END;
				out.String("; ");
			END;
			out.Ln;
			out.Update;
		END SystemTrace;

		PROCEDURE FindType(type: SyntaxTree.Выражениеˉтип): Result;
		BEGIN
			ПосетиУзелИзСемьиВыраженияˉтипа(type);
			IF item.object # NIL THEN
				RETURN item.object(Result);
			END;
			RETURN NIL;
		END FindType;

		PROCEDURE {OVERRIDE}ПосетиОбращение˛осмысленноеКакВызовВстроеннойПроцедуры*(x: SyntaxTree.Обращение˛осмысленноеКакВызовВстроеннойПроцедуры);
		VAR p,p0,p1,p2: SyntaxTree.Выражениеˉзначение;
			type,t0,t1,t2: SyntaxTree.Выражениеˉтип;
			len: SIZE;
			i: SIZE;
			parameter: SyntaxTree.ОбъявлениеПараметра;
			name: Basic.SectionName;
			modifier: SyntaxTree.Модификатор;
			position: SyntaxTree.МестоВ_тексте;
			value: Value;
			result: Result;
			address: ADDRESS;
			o: ANY;
			anyValue: InterpreterSymbols.AnyValue;
			proc: InterpreterSymbols.ProcedureResult;
			ignore: Result;
			e: SyntaxTree.Выражениеˉзначение;
		BEGIN
			position := x.начВ_тексте;
			p0 := NIL; p1 := NIL; p2 := NIL;
			IF x.параметры # NIL THEN
				len := x.параметры.Длина();
			ELSE
				len := 0
			END;
			CASE x.номерВстроеннойПроцедуры OF
			(* ----- NEW -----*)
			Global.New:
				result := FindType(x.возвращаемыйТип);
				IF (result # NIL) & (result IS InterpreterSymbols.TypeResult)  THEN
					address := result.Address();
					Heaps.NewRec(o, address, FALSE);
					NEW(anyValue, o);

					proc := result(InterpreterSymbols.TypeResult).Constructor();
					IF proc # NIL THEN
						proc.Pars();
						proc.PushAddress(o);
						FOR i := 0 TO x.параметры.Длина()-1 DO
							e := x.параметры.ДайВыражение(i);
							IF ~proc.Push(Designate(e)) THEN Error("wrong parameter"); item.object := NIL; RETURN END;
						END;
						IF ~proc.Check() THEN Error("non-matching parameter number"); item.object := NIL; RETURN END;
						ignore := proc.Evaluate();
					END;
					item.object := anyValue;
				ELSE
					Error("No Type");
				END;
			|Global.systemTrace:
				SystemTrace(x.параметры);
			ELSE (* function not yet implemented *)
				Error("Not Yet Implemented");
			END;
		END ПосетиОбращение˛осмысленноеКакВызовВстроеннойПроцедуры;

		PROCEDURE {OVERRIDE}ПосетиОбращение˛осмысленноеКакОхранаТипа*(x: SyntaxTree.Обращение˛осмысленноеКакОхранаТипа);
		BEGIN HALT(100) (* abstract *) END ПосетиОбращение˛осмысленноеКакОхранаТипа;

		PROCEDURE {OVERRIDE}ПосетиОбращение˛осмысленноеКакРазыменованиеУкля*(x: SyntaxTree.Обращение˛осмысленноеКакРазыменованиеУкля);
		BEGIN HALT(100) (* abstract *) END ПосетиОбращение˛осмысленноеКакРазыменованиеУкля;

		PROCEDURE {OVERRIDE}ПосетиОбращение˛осмысленноеКакВызовМетодаПредка*(x: SyntaxTree.Обращение˛осмысленноеКакВызовМетодаПредка);
		BEGIN HALT(100) (* abstract *) END ПосетиОбращение˛осмысленноеКакВызовМетодаПредка;

		PROCEDURE {OVERRIDE}ПосетиОбращение˛осмысленноеКакОбрК_себе*(x: SyntaxTree.Обращение˛осмысленноеКакОбрК_себе);
		BEGIN HALT(100) (* abstract *) END ПосетиОбращение˛осмысленноеКакОбрК_себе;

		PROCEDURE {OVERRIDE}ПосетиОбращение˛осмысленноеКакОбрК_псевдоПеременной«результат»*(x: SyntaxTree.Обращение˛осмысленноеКакОбрК_псевдоПеременной«результат»);
		BEGIN HALT(100) (* abstract *) END ПосетиОбращение˛осмысленноеКакОбрК_псевдоПеременной«результат»;

		(** values *)
		PROCEDURE {OVERRIDE}ПосетиЗначение˛известноеВоВремяКомпиляции*(x: SyntaxTree.Значение˛известноеВоВремяКомпиляции);
		BEGIN HALT(100) (* abstract *) END ПосетиЗначение˛известноеВоВремяКомпиляции;

		PROCEDURE {OVERRIDE}ПосетиЗначение˛известноеВоВремяКомпиляции˛булево*(x: SyntaxTree.Значение˛известноеВоВремяКомпиляции˛булево);
		BEGIN
			NewBool(x.значение)
		END ПосетиЗначение˛известноеВоВремяКомпиляции˛булево;

		PROCEDURE {OVERRIDE}ПосетиЗначение˛известноеВоВремяКомпиляции˛целое*(x: SyntaxTree.Значение˛известноеВоВремяКомпиляции˛целое);
		BEGIN
			NewInt(x.значение)
		END ПосетиЗначение˛известноеВоВремяКомпиляции˛целое;

		PROCEDURE {OVERRIDE}ПосетиЗначение˛известноеВоВремяКомпиляции˛литера*(x: SyntaxTree.Значение˛известноеВоВремяКомпиляции˛литера);
		BEGIN
			NewChar(x.значение);
		END ПосетиЗначение˛известноеВоВремяКомпиляции˛литера;

		PROCEDURE {OVERRIDE}ПосетиЗначение˛известноеВоВремяКомпиляции˛байт*(x: SyntaxTree.Значение˛известноеВоВремяКомпиляции˛байт);
		BEGIN
			NewSet(SET(x.значение))
		END ПосетиЗначение˛известноеВоВремяКомпиляции˛байт;

		PROCEDURE {OVERRIDE}ПосетиЗначение˛известноеВоВремяКомпиляции˛матМассив*(x: SyntaxTree.Значение˛известноеВоВремяКомпиляции˛матМассив);
		BEGIN HALT(100) (* abstract *) END ПосетиЗначение˛известноеВоВремяКомпиляции˛матМассив;

		PROCEDURE {OVERRIDE}ПосетиЗначение˛известноеВоВремяКомпиляции˛вещ*(x: SyntaxTree.Значение˛известноеВоВремяКомпиляции˛вещ);
		BEGIN
			NewReal(x.значение)
		END ПосетиЗначение˛известноеВоВремяКомпиляции˛вещ;

		PROCEDURE {OVERRIDE}ПосетиЗначение˛известноеВоВремяКомпиляции˛комплексное*(x: SyntaxTree.Значение˛известноеВоВремяКомпиляции˛комплексное);
		BEGIN HALT(100) (* abstract *) END ПосетиЗначение˛известноеВоВремяКомпиляции˛комплексное;

		PROCEDURE {OVERRIDE}ПосетиЗначение˛известноеВоВремяКомпиляции˛строковое*(x: SyntaxTree.Значение˛известноеВоВремяКомпиляции˛строковое);
		BEGIN
			NewString(x.значение^);
		END ПосетиЗначение˛известноеВоВремяКомпиляции˛строковое;

		PROCEDURE {OVERRIDE}ПосетиЗначение˛известноеВоВремяКомпиляции˛НУЛЬ*(x: SyntaxTree.Значение˛известноеВоВремяКомпиляции˛НУЛЬ);
		BEGIN HALT(100) (* abstract *) END ПосетиЗначение˛известноеВоВремяКомпиляции˛НУЛЬ;

		PROCEDURE {OVERRIDE}ПосетиЗначение˛известноеВоВремяКомпиляции˛перечисления*(x: SyntaxTree.Значение˛известноеВоВремяКомпиляции˛перечисления);
		BEGIN HALT(100) (* abstract *) END ПосетиЗначение˛известноеВоВремяКомпиляции˛перечисления;

		(** symbols *)
		PROCEDURE {OVERRIDE}ПосетиОбъявлениеИменованнойСущности*(x: SyntaxTree.ОбъявлениеИменованнойСущности);
		BEGIN HALT(100) (* abstract *) END ПосетиОбъявлениеИменованнойСущности;

		PROCEDURE {OVERRIDE}ПосетиОбъявлениеТипаˉнаименования*(x: SyntaxTree.ОбъявлениеТипаˉнаименования);
		BEGIN HALT(100) (* abstract *) END ПосетиОбъявлениеТипаˉнаименования;

		PROCEDURE {OVERRIDE}ПосетиОбъявлениеКонстанты*(x: SyntaxTree.ОбъявлениеКонстанты);
		BEGIN HALT(100) (* abstract *) END ПосетиОбъявлениеКонстанты;

		PROCEDURE {OVERRIDE}ПосетиОбъявлениеПеременной*(x: SyntaxTree.ОбъявлениеПеременной);
		BEGIN HALT(100) (* abstract *) END ПосетиОбъявлениеПеременной;

		PROCEDURE {OVERRIDE}ПосетиОбъявлениеПараметра*(x: SyntaxTree.ОбъявлениеПараметра);
		BEGIN HALT(100) (* abstract *) END ПосетиОбъявлениеПараметра;

		PROCEDURE {OVERRIDE}ПосетиОбъявлениеПроцедуры*(x: SyntaxTree.ОбъявлениеПроцедуры);
		BEGIN HALT(100) (* abstract *) END ПосетиОбъявлениеПроцедуры;

		PROCEDURE {OVERRIDE}ПосетиОбъявлениеВстроеннойПроцедуры*(x: SyntaxTree.ОбъявлениеВстроеннойПроцедуры);
		BEGIN HALT(100) (* abstract *) END ПосетиОбъявлениеВстроеннойПроцедуры;

		PROCEDURE {OVERRIDE}ПосетиОбъявлениеОперации*(x: SyntaxTree.ОбъявлениеОперации);
		BEGIN HALT(100) (* abstract *) END ПосетиОбъявлениеОперации;

		PROCEDURE {OVERRIDE}ПосетиОбъявлениеИспользованияМодуля*(x: SyntaxTree.ОбъявлениеИмпортаМодуля);
		BEGIN HALT(100) (* abstract *) END ПосетиОбъявлениеИспользованияМодуля;

		(* copy src to value string replacing substrings that are embraced between refSymbols by expression value *)
		PROCEDURE l9TranslateString*(cmd: CHAR; CONST str: ARRAY OF CHAR; VAR dest: Strings.String): BOOLEAN;
		CONST
			LeftDelimiter = '{'; RightDelimiter = '}';
		VAR
			position : SIGNED32; ch: CHAR;
			destination, expMaker: Scanner.StringMaker; destinationWriter, expressionWriter: Streams.Writer; scanner: Scanner.Scanner; parser: Parser;
			expression: SyntaxTree.Выражениеˉзначение; l0value: Value; len: SIZE;
			comment: SIGNED32;

			PROCEDURE Next(VAR l1ch: CHAR);
			BEGIN
				IF position = LEN(str) THEN l1ch := 0X ELSE l1ch := str[position]; INC(position) END;
			END Next;

			PROCEDURE EvaluateExpression();
			VAR str: Strings.String; reader: Streams.Reader; done: BOOLEAN;
			BEGIN
				reader := expMaker.GetReader();
				scanner := Scanner.NewScanner("", reader, 0, NIL);
				NEW(parser, scanner, NIL, "");
				REPEAT
					error := FALSE;
					expression := parser.Expression();
					done := GetValue(expression, l0value);
				UNTIL done OR ~parser.Optional(Scanner.Colon);

				IF done THEN l0value(Value).WriteValue(destinationWriter);
				ELSE
					destinationWriter.String("#COULD NOT INTERPRETE#");
					error := TRUE;
				END;
			END EvaluateExpression;

		BEGIN
			error := FALSE;
			position := 0;
			Next(ch);
			NEW(destination,256); destinationWriter := destination.GetWriter();
			NEW(expMaker, 256); expressionWriter := expMaker.GetWriter();
			comment := 0;

			WHILE (ch # 0X) DO
				(* copy string literally *)
				IF (comment = 0) & (ch = cmd) THEN
					Next(ch);
					IF ch = LeftDelimiter THEN
						Next(ch);
						REPEAT
							WHILE (ch # 0X) & (ch # RightDelimiter) DO expressionWriter.Char(ch); Next(ch) END;
							IF ch = RightDelimiter THEN
								Next(ch); IF (ch # cmd) THEN expressionWriter.Char(RightDelimiter) END;
							END;
						UNTIL (ch=0X) OR (ch = cmd);
						IF ch # 0X THEN Next(ch) END;
						expressionWriter.Update;
						EvaluateExpression();
						expMaker.Clear;
					ELSE
						destinationWriter.Char(cmd);
					END;
				(* remove comments *)
				ELSIF ch = "(" THEN
					Next(ch);
					IF ch = "*" THEN
						INC(comment); Next(ch);
					ELSIF comment = 0 THEN
						destinationWriter.Char("(");
					END;
				ELSIF ch="*" THEN
					Next(ch);
					IF ch = ")" THEN
						DEC(comment);
						IF comment < 0 THEN comment := 0 END; Next(ch);
					ELSIF comment = 0 THEN
						destinationWriter.Char("*")
					END;
				ELSE
					IF comment = 0 THEN destinationWriter.Char(ch) END;
					Next(ch);
				END;
			END;
			destinationWriter.Update;
			dest := destination.GetString(len);
			RETURN ~error
		END l9TranslateString;

		PROCEDURE VisitCommandStatement(x: CommandStatement);
		VAR t: Strings.String; res: INTEGER; msg: ARRAY 128 OF CHAR; i: SIZE; array: Strings.StringArray; pos: SIGNED32;
			command: ARRAY 256 OF CHAR; l10context: Commands.Context;

			PROCEDURE CreateContext(paramString : Strings.String; l11pos: SIGNED32) : Commands.Context;
			VAR l12c : Commands.Context; arg : Streams.StringReader; dummy : ARRAY 1 OF CHAR; len: SIZE;
			BEGIN
				IF (paramString = NIL) THEN
					NEW(arg, 1); dummy := ""; arg.SetRaw(dummy, 0, 1);
				ELSE
					len := Strings.Length(paramString^)+1 (*+1 to include 0X *);
					NEW(arg, len-l11pos); arg.SetRaw(paramString^, l11pos, len-l11pos);
				END;
				NEW(l12c, l10context.in, arg, l10context.out, l10context.error, l10context.caller);
				RETURN l12c;
			END CreateContext;

			PROCEDURE IsDelimiter(ch : CHAR) : BOOLEAN;
			CONST CR = 0DX;  LF = 0AX;  TAB = 9X;
			BEGIN
				RETURN (ch = " ") OR (ch = CR) OR (ch = LF) OR (ch = TAB) OR (ch = ";") OR (ch = 0X);
			END IsDelimiter;

		BEGIN
			IF SELF.context = NIL THEN
				l10context := Commands.GetContext();
			ELSE
				l10context := SELF.context
			END;
			IF l9TranslateString("?", x.command^, t) THEN END;
			array := Strings.Split(t^, "~");
			FOR i := 0 TO LEN(array)-1 DO
				Strings.TrimWS(array[i]^);
				IF (array[i]^ # "") THEN
						(* extract command *)
						pos := 0;
						WHILE ~IsDelimiter(array[i][pos])  DO command[pos] := array[i][pos]; INC(pos); END;
						command[pos] := 0X;
						IF pos # 0 THEN
							l10context := CreateContext(array[i], pos);
							Commands.Activate(command, l10context, SET({Commands.Wait, Commands.InheritContext}), res, msg);
							IF res # 0 THEN
								l10context.out.String("Interpreter: "); l10context.error.String(command); l10context.error.String(" failed"); l10context.error.Ln
							END;
						END;
				END;

			END;
			IF res # 0 THEN Error(msg) END;
		END VisitCommandStatement;

		PROCEDURE VisitPrintStatement(x: PrintStatement);
		VAR out: Streams.Writer; printout: Printout.Printer; expression: SyntaxTree.Выражениеˉзначение; l13value: Value;
		BEGIN

			out := context.out;
			printout := Printout.NewPrinter(out,Printout.SourceCode,FALSE,FALSE,Scanner.ВариантыПеревода.Uppercase);
				expression := x.expression;
				IF ~(expression IS SyntaxTree.Значение˛известноеВоВремяКомпиляции˛строковое) THEN
					printout.Expression(expression);
					out.String("= ");
				END;
				l13value := Evaluate(expression);
				IF l13value # NIL THEN
					l13value.WriteValue(out);
				ELSE
					out.String("UNKNOWN")
				END;
				out.String("; ");
			out.Ln;
			out.Update;
		END VisitPrintStatement;

		(** statements *)
		PROCEDURE {OVERRIDE}ПосетиПредписание*(x: SyntaxTree.Предписание);
		BEGIN
			IF x IS CommandStatement THEN
				VisitCommandStatement(x(CommandStatement));
			ELSIF x IS PrintStatement THEN
				VisitPrintStatement(x(PrintStatement));
			ELSE HALT(100)
			END;
		END ПосетиПредписание;

		PROCEDURE {OVERRIDE}ПосетиПредписаниеВызватьПроцедуру*(x: SyntaxTree.ПредписаниеВызватьПроцедуру);
		VAR call: SyntaxTree.Выражˉобращение;
		BEGIN
			IF ~(x.узелВызова IS SyntaxTree.Обращение˛разобранноеКакВызовВ_круглСкобках) THEN
				call := SyntaxTree.ЯвиОбращение˛разобранноеКакВызовВ_круглСкобках(x.начВ_тексте,x.узелВызова,SyntaxTree.ЯвиСписокВыражˉзначенийЧерезЗапятую());
			ELSE
				call := x.узелВызова;
			END;
			ПосетиУзелИзСемьиВыраженияˉзначения(call);
		END ПосетиПредписаниеВызватьПроцедуру;

		PROCEDURE LoadValue;
		BEGIN
			IF (item.object # NIL) & (item.object IS Result) THEN
				item.object := item.object(Result).Evaluate();
			ELSE
				ErrorSS("could not load value", item.name);
			END;
		END LoadValue;

		PROCEDURE GetValue*(x: SyntaxTree.Выражениеˉзначение; VAR w: Value): BOOLEAN;
		BEGIN
			IF error THEN RETURN FALSE END;
			l19Expression(x);
			IF error THEN RETURN FALSE END;
			LoadValue();
			IF item.object # NIL THEN
				w := item.object(Value);
			END;
			RETURN ~error
		END GetValue;

		PROCEDURE Designate(x: SyntaxTree.Выражениеˉзначение): Result;
		BEGIN
			l19Expression(x);
			IF item.object # NIL THEN
				RETURN item.object(Result);
			ELSE
				RETURN NIL
			END;
		END Designate;

		PROCEDURE Evaluate(x: SyntaxTree.Выражениеˉзначение): Value;
		VAR w: Value;
		BEGIN
			IF GetValue(x, w) THEN RETURN w ELSE RETURN NIL END;
		END Evaluate;

		PROCEDURE GetInteger(x: SyntaxTree.Выражениеˉзначение; VAR i: Integer): BOOLEAN;
		VAR v: Value;
		BEGIN
			IF GetValue(x, v) & (v IS Integer) THEN i := v(Integer); RETURN TRUE ELSE RETURN FALSE END;
		END GetInteger;

		PROCEDURE ExpectInteger(x: SyntaxTree.Выражениеˉзначение; VAR i: Integer): BOOLEAN;
		BEGIN IF ~GetInteger(x, i) THEN Error("invalid value - must be integer"); RETURN FALSE ELSE RETURN TRUE END;
		END ExpectInteger;

		PROCEDURE GetBoolean(x: SyntaxTree.Выражениеˉзначение; VAR i: Boolean): BOOLEAN;
		VAR v: Value;
		BEGIN
			IF GetValue(x, v) & (v IS Boolean) THEN i := v(Boolean); RETURN TRUE ELSE RETURN FALSE END;
		END GetBoolean;

		PROCEDURE ExpectBoolean(x: SyntaxTree.Выражениеˉзначение; VAR b: Boolean): BOOLEAN;
		BEGIN IF ~GetBoolean(x, b) THEN Error("invalid value - must be boolean"); RETURN FALSE ELSE RETURN TRUE END;
		END ExpectBoolean;

		PROCEDURE PutValue(x: SyntaxTree.Выражˉобращение; v: Value);
		BEGIN
			ПосетиУзелИзСемьиВыраженияˉзначения(x);
			IF (item.object # NIL) & item.object(Result).SetV(v) THEN
			ELSIF (item.in # NIL) & (item.name # 0) & (item.in IS Container) THEN
				item.in(Container).Enter1(v, item.name);
			END;
		END PutValue;

		PROCEDURE {OVERRIDE}ПосетиПредписаниеПрисвоитьЗначение*(x: SyntaxTree.ПредписаниеПрисвоитьЗначение);
		VAR l14value: Value;
		BEGIN
			IF GetValue(x.что, l14value) THEN
				IF x.куда # NIL THEN
					PutValue(x.куда, l14value);
				END;
			END;
		END ПосетиПредписаниеПрисвоитьЗначение;

		PROCEDURE IfPart(ifPart: SyntaxTree.ВеткаПредписания«если»): BOOLEAN;
		VAR l15value: Boolean;
		BEGIN
			IF ExpectBoolean(ifPart.условие,l15value) THEN
				IF l15value(Boolean).value THEN
					StatementSequence(ifPart.действия);
					RETURN TRUE
				END;
			END;
			RETURN FALSE
		END IfPart;

		PROCEDURE {OVERRIDE}ПосетиПредписание«если»*(x: SyntaxTree.Предписание«если»);
		VAR i: SIZE; elsif: SyntaxTree.ВеткаПредписания«если»;
		BEGIN
			IF IfPart(x.веткаЕсли) THEN RETURN END;
			FOR i := 0 TO x.ElsifParts()-1 DO
				elsif := x.ДайВеткуАесли(i);
				IF IfPart(elsif) THEN RETURN END;
			END;
			IF x.веткаИначе # NIL THEN
				StatementSequence(x.веткаИначе)
			END;
		END ПосетиПредписание«если»;

		PROCEDURE {OVERRIDE}ПосетиВеткуПредписания«просейТип»*(x: SyntaxTree.Предписание«просейТип»);
		BEGIN HALT(100) (* abstract *) END ПосетиВеткуПредписания«просейТип»;

		PROCEDURE CasePart(x: SyntaxTree.ВеткаПредписания«просей»; b: SyntaxTree.ВыражˉзначениеБинарнаяОперация): BOOLEAN;
		VAR i: SIZE; l16value: Value;
		BEGIN
			FOR i := 0 TO x.составУсловия.Длина()-1 DO
				b.УстПрав(x.составУсловия.ДайВыражение(i));
				IF GetValue(b, l16value) & (l16value IS Boolean) THEN
					IF l16value(Boolean).value THEN StatementSequence(x.действия); RETURN TRUE END;
				ELSE Error("invalid non-boolean value")
				END
			END;
			RETURN FALSE
		END CasePart;

		PROCEDURE {OVERRIDE}ПосетиПредписание«просей»*(x: SyntaxTree.Предписание«просей»);
		VAR binary: SyntaxTree.ВыражˉзначениеБинарнаяОперация; i: SIZE;
		BEGIN
			binary := SyntaxTree.ЯвиВыражˉзначениеБинарнаяОперация(Basic.invalidPosition, x.чтоПросеиваем, x.чтоПросеиваем, Scanner.Equal);
			FOR i := 0 TO x.ДайВеткиУсловий()-1 DO
				IF CasePart(x.ДайВетку(i), binary) THEN RETURN END;
			END;
			IF x.ветка«Иначе» # NIL THEN
				StatementSequence(x.ветка«Иначе»)
			END;
		END ПосетиПредписание«просей»;

		PROCEDURE {OVERRIDE}ПосетиПредписание«циклПока»*(x: SyntaxTree.Предписание«циклПока»);
		VAR l17value: Boolean;
		BEGIN
			WHILE ExpectBoolean(x.условие, l17value) & l17value.value DO
				StatementSequence(x.действия);
			END;
		END ПосетиПредписание«циклПока»;

		PROCEDURE {OVERRIDE}ПосетиПредписание«циклДо»*(x: SyntaxTree.Предписание«циклДо»);
		VAR l18value: Boolean;
		BEGIN
			REPEAT
				StatementSequence(x.действия);
			UNTIL ~ExpectBoolean(x.условие, l18value) OR l18value.value
		END ПосетиПредписание«циклДо»;

		PROCEDURE {OVERRIDE}ПосетиПредписание«циклДля»*(x: SyntaxTree.Предписание«циклДля»);
		VAR fromV, toV, byV: Integer; from, to, by,i: SIGNED64; int: Integer;
		BEGIN
			IF ExpectInteger(x.От, fromV) & ExpectInteger(x.До, toV) THEN
				from := fromV.value;
				to := toV.value;
				l19Expression(x.Счётчик);
				NEW(int, from);
				PutValue(x.Счётчик, int);
				i := from;
				WHILE i <= to DO
					int.value := i;
					StatementSequence(x.Действия);
					INC(i);
				END;
			END;
		END ПосетиПредписание«циклДля»;

		PROCEDURE {OVERRIDE}ПосетиПредписание«цикл»*(x: SyntaxTree.Предписание«цикл»);
		VAR prevExit: BOOLEAN;
		BEGIN
			prevExit := exit;
			exit := FALSE;
			LOOP
				StatementSequence(x.Действия);
				IF exit THEN EXIT END;
			END;
			exit := prevExit
		END ПосетиПредписание«цикл»;

		PROCEDURE {OVERRIDE}ПосетиПредписание«прервиЦикл»*(x: SyntaxTree.Предписание«прервиЦикл»);
		BEGIN
			exit := TRUE
		END ПосетиПредписание«прервиЦикл»;

		PROCEDURE {OVERRIDE}ПосетиПредписание«возврат»*(x: SyntaxTree.Предписание«возврат»);
		BEGIN HALT(100) (* abstract *) END ПосетиПредписание«возврат»;

		PROCEDURE {OVERRIDE}ПосетиПредписание«дождись»*(x: SyntaxTree.Предписание«дождись»);
		BEGIN HALT(100) (* abstract *) END ПосетиПредписание«дождись»;

		PROCEDURE {OVERRIDE}ПосетиПредписание«тело»без«выходя»*(x: SyntaxTree.Предписание«тело»без«выходя»);
		BEGIN
			StatementSequence(x.действия)
		END ПосетиПредписание«тело»без«выходя»;

		PROCEDURE {OVERRIDE}ПосетиПредписание«машКод»*(x: SyntaxTree.Предписание«машКод»);
		BEGIN HALT(100) (* abstract *) END ПосетиПредписание«машКод»;

		PROCEDURE l19Expression(x: SyntaxTree.Выражениеˉзначение);
		BEGIN
			value := FALSE;
			ПосетиУзелИзСемьиВыраженияˉзначения(x);
		END l19Expression;

		PROCEDURE Statement*(x: SyntaxTree.Предписание);
		BEGIN
			item.object := NIL;
			ПосетиУзелИзСемьиПредписания(x);
		END Statement;

		PROCEDURE StatementSequence*(x: SyntaxTree.ПоследовательностьПредписаний);
		VAR i: SIZE;
		BEGIN
			FOR i := 0 TO x.Длина()-1 DO
				Statement(x.ДайПредписание(i));
			END;
		END StatementSequence;

	END Interpreter;

	Resolver*= OBJECT
	VAR
		interpreter: Interpreter;
		content: PersistentObjects.Content;
		resolved: Basic.HashTable;
		current: Scope;
		changed: BOOLEAN;

		PROCEDURE & InitResolver*;
		BEGIN
			NEW(content); NEW(resolved,64); NEW(interpreter, NIL, NIL, NIL);
		END InitResolver;

		PROCEDURE Traverse(CONST name: ARRAY OF CHAR; array: BOOLEAN);
		VAR index: SIGNED32; success: BOOLEAN;
		BEGIN
			IF array THEN index := 0 ELSE index := -1 END;
			REPEAT
				success := FALSE;
				content.success := FALSE;
				current.object.Get(name, index, content);
				IF content.success & (content.class = PersistentObjects.Class.Object) THEN
					success := content.object # NIL;
					IF content.object # NIL THEN
						DoResolve(current.Enter(content.object)); (* content object can be overwritten as sideeffect! *)
					END;
				END;
				INC(index);
			UNTIL ~array OR ~success
		END Traverse;

		PROCEDURE DoResolve*(scope: Scope);
		VAR translation: PersistentObjects.Interpretation; prev: Scope; str: Strings.String;
		BEGIN
			IF (scope.object # NIL) & ~resolved.Has(scope.object) THEN
				prev := current;
				current := scope;
				resolved.Put(scope.object, SELF);
				interpreter.Init(scope, NIL, NIL);

				translation := scope.object.firstTranslation;
				WHILE translation # NIL DO
					IF EnableTrace THEN D.String("resolve "); D.String(translation.name^); D.String(":"); D.String(translation.str^); END;
					IF interpreter.l9TranslateString("?", translation.str^,  str) THEN
						IF EnableTrace THEN D.String(":"); D.Str(str^); END;
						scope.object.Get(translation.name^, -1, content);
						IF ~content.Equals(str^) THEN
							changed := TRUE;
							content.SetAsString(str^);
						END;
						scope.object.Set(translation.name^, -1, content);
					ELSE
						IF EnableTrace THEN D.String(":could not resolve"); END;
					END;
					IF EnableTrace THEN D.Ln; END;
					translation := translation.next
				END;

				scope.object.Enumerate(Traverse);

				current := prev;
			END;
		END DoResolve;

		PROCEDURE Resolve*(scope: Scope);
		BEGIN
			REPEAT
				changed := FALSE;
				resolved.Clear();
				DoResolve(scope);
			UNTIL ~changed;
		END Resolve;

	END Resolver;

VAR global-: Scope;

PROCEDURE Statements*(context: Commands.Context);
VAR scanner: Scanner.Scanner; parser: Parser; diagnostics: Diagnostics.StreamDiagnostics;
	seq: SyntaxTree.ПоследовательностьПредписаний; interpreter: Interpreter;
BEGIN
	NEW(diagnostics, context.error);
	scanner := Scanner.NewScanner("",context.arg,0,diagnostics);
	NEW(parser, scanner, diagnostics, "");
	seq := parser.StatementSequence(NIL);
	NEW(interpreter, global, diagnostics,context); interpreter.StatementSequence(seq);
END Statements;

PROCEDURE Expression*(context: Commands.Context);
VAR scanner: Scanner.Scanner; parser: Parser; diagnostics: Diagnostics.StreamDiagnostics;
	interpreter: Interpreter; value: Value; expression: SyntaxTree.Выражениеˉзначение;
BEGIN
	NEW(diagnostics, context.error);
	scanner := Scanner.NewScanner("",context.arg,0,diagnostics);
	NEW(parser, scanner, diagnostics, "");
	expression := parser.Expression();
	NEW(interpreter, global, diagnostics,NIL);
	IF interpreter.GetValue(expression, value) THEN
		value(Value).WriteValue(context.out); context.out.Ln
	ELSE
		context.error.String("could not evaluate expression"); context.error.Ln
	END;
END Expression;

PROCEDURE TranslateString*(context: Commands.Context);
VAR dest: Strings.String; testString: ARRAY 256 OF CHAR; interpreter: Interpreter; streamDiagnostics: Diagnostics.StreamDiagnostics;
BEGIN
	NEW(streamDiagnostics, context.error);
	NEW(interpreter, global, streamDiagnostics,NIL);
	WHILE context.arg.GetString(testString) DO
		IF interpreter.l9TranslateString("?", testString, dest) THEN
			context.out.String("RESULT: ");
			context.out.String(dest^);
			context.out.Ln;
		ELSE
			context.error.String("could not translate: ");
			context.error.String(dest^);
			context.error.Ln;
		END;
	END;
END TranslateString;

PROCEDURE InitGlobalScope;
VAR container: Container;
BEGIN
	NEW(container);
	NEW(global, NIL, container);
END InitGlobalScope;

VAR c: SIGNED32;
VAR d: RECORD e: SIGNED32 END;

	PROCEDURE Getter(): SIGNED32;
	BEGIN
		RETURN 123;
	END Getter;

	PROCEDURE Setter(a: SIGNED32): SIGNED32;
	BEGIN
		TRACE(a);
		RETURN a+123;
	END Setter;

	TYPE TestO= OBJECT
	VAR i: SIGNED32;
	PROCEDURE &P(s: SIGNED8);
	BEGIN
		i := 999+s;
	END P;

	END TestO;

BEGIN
	InitGlobalScope;
	c := 10;
	d.e := 20;
END FoxInterpreter.

System.FreeDownTo FoxInterpreterSymbols ~ FoxInterpreter FoxInterpreterSymbols Reflection2 ~

FoxInterpreter.Expression
	FoxInterpreter.c ~

FoxInterpreter.Expression
	-8 ~

FoxInterpreter.Expression
	FoxInterpreter.d.e ~

FoxInterpreter.Expression
	FoxInterpreter.Getter() ~

FoxInterpreter.Expression
	FoxInterpreter.Setter(1000) ~

FoxInterpreter.Statements
	a := NEW FoxInterpreter.TestO(-8);
	trace(a.i);
	a.i := 10;
	KernelLog.Int(a.i,1);
	KernelLog.Ln;
	~

FoxInterpreter.Expression
	Test.c.b;
	~

FoxInterpreter.Expression
	Test.Test(5);
	~
FoxInterpreter.Statements
	a := Test.c.b;
	Test.c.b := Test.c.b + 1;
	~
FoxInterpreter.Expression
	a;
	~
FoxInterpreter.Expression
	Test.c.b;
	~

FoxInterpreter.Statements
	Test.Test(123)
	~

FoxInterpreter.Statements
	FOR i := 1 TO 100 DO
		CASE i MOD 10 OF
		1: suffix := "st"
		|2: suffix := "nd"
		|3: suffix := "rd"
		ELSE suffix := "th"
		END;
		IF i MOD 9 = 0 THEN
			! "System.Show This is the ?{i}??{suffix}? run." ;
			! "System.Ln";
		END;
	END;
~
FoxInterpreter.Expression
	i MOD 10  ~

FoxInterpreter.Statements
	o := Test.TestO();
	~

FoxInterpreter.Statements
	s := {0..10, 15};
	a := 10;
	b := 10..20;
	c := {a,b};
	x := 10;
	y := 20;
	z := x;
	z := x + y;
	b := x = y;
	nb := x # y;
	FOR i := 0 TO 3 DO
		a := i;
		IF i<2 THEN
			a := 200+i;
		END;
		CASE i OF
		0: a := 2000;
		|2: HALT(100)
		END;
	END;
	~
	TRACE(x);

	FOR i := 0 TO 100 DO
		x[i] := i
	END;
	~

FoxInterpreter.TranslateString
	"This is a string ?{15+2*20*a:32}? oha."
	"The rest of this string will be evaluated ?{3+5 = 20}?"
	"?{ 100*15"
	"a set in a evaluated expression ?{{1,2,4}}?"
	~

FoxInterpreter.Statements
	a := [[1,2,3],[4,5,6],[7,8,9]];
	FOR i := 0 TO 2 DO
	FOR j := 0 TO 2 DO
		! \+"System.Show ?{a[i,j]}? ;"+\
	END;
		! \+"System.Ln;"+\
	END;
	! "System.Show ?{a}? ";
	? a;
	? 1+1;
	? 1+2;
	~

System.FreeDownTo FoxInterpreter FoxInterpreterSymbols ~
