MODULE LisГенЗагСлов; (** (С) Денис Будяк 2020-2021 *)


IMPORT
	Scanner := LisScanner, SyntaxTree := LisSyntaxTree, Global := LisGlobal,
	Basic := FoxBasic, Streams, D:=Debugging, УтилитыДляПереводаКода := LisУтилитыДляПереводаКода, 
	SYSTEM, ПрецедентыПереводов, Strings;

CONST
	(* Режимы порождения *)
	СловарьПереводов*=7;  
	ПереименованияДубликатов*=8;

	DebugPosition=FALSE;
TYPE

	Printer*= OBJECT (SyntaxTree.Visitor)
	VAR
		w-: Basic.Writer; 
		mode: SIGNED32; (* См. константы СловарьПереводов и т.п. чуть выше *) 
		singleStatement: BOOLEAN;
		currentScope: SyntaxTree.Scope; ws: Streams.StringWriter;
		info: BOOLEAN; printCase: Scanner.ВариантыПеревода; (* Значения Scanner.ВариантыПеревода.Uppercase, Scanner.Lowercase, Scanner.ВариантыПеревода.Русский *)
		useCase: BOOLEAN; (* TRUE to enable case conversion in "Identifier" *)
		currentModule: SyntaxTree.Module; (* заполняется в начале пр-ры Module *)
		обрабатываемModifier: BOOLEAN; (* в Modifier могут (наверное) возникать 
			новые слова в виде выражений. Этот выключатель говорит о том, что нужно 
			их включать в словарь, но тут ещё нужно уточнять *)		
		счётчикРастеняющихПриставок-: UNSIGNED32; (* а надо бы его поместить в компилятор, 
			или даже в СборщикВыпускаЯОС *)

		alertCount, commentCount: SIGNED32;

		PROCEDURE Keyword(CONST a: ARRAY OF CHAR);
		VAR симв : Scanner.Symbol;
		BEGIN
			симв := Scanner.keywordsUpper.SymbolByString(a);
			KeywordСимв(симв) END Keyword;
			
		PROCEDURE KeywordСимв(симв: Scanner.Symbol);
		VAR str: ARRAY 64 OF CHAR; 
		BEGIN
			ASSERT(симв # 0);
			CASE printCase OF
				| Scanner.ВариантыПеревода.Uppercase:
					Scanner.keywordsUpper.StringBySymbol(симв, str);
				| Scanner.ВариантыПеревода.Русский:
					Scanner.keywords_Русские.StringBySymbol(симв, str) END;
			w.BeginKeyword;
			w.String("<!--");
			w.String(str);
			w.String("-->");
			w.EndKeyword;
		END KeywordСимв;
		
		PROCEDURE AlertString(CONST s: ARRAY OF CHAR);
		BEGIN
			D.String(s); D.Ln;
			(* w.BeginAlert; w.String(s); w.EndAlert; *)
		END AlertString;

		PROCEDURE Indent(нота = '$' : ARRAY OF CHAR);
		BEGIN (* Это полезно при отладке w.String(нота); *) w.Ln;
		END Indent;

		PROCEDURE Identifier*(x: SyntaxTree.Identifier);
		VAR str: Scanner.IdentifierString;
		BEGIN
			Basic.GetString(x.И,str);
			w.String(str);
		END Identifier;


		(* PROCEDURE IdentifierString(x: ARRAY OF CHAR);
		BEGIN
			w.String(x);
		END IdentifierString; *)

		PROCEDURE QualifiedIdentifier*(x: SyntaxTree.QualifiedIdentifier);
		BEGIN
			IF info THEN
				w.String("«QualifiedIdentifier»") END;
			IF x.prefix.И # SyntaxTree.invalidIdentifier.И THEN Identifier(x.prefix); w.String("."); END;
			Identifier(x.suffix);
		END QualifiedIdentifier;

		PROCEDURE Type*(x: SyntaxTree.Type);
		BEGIN
			IF x= NIL THEN
				AlertString("nil type");
			ELSE
				VType(x);
			END;
		END Type;

		PROCEDURE {OVERRIDE}VisitType*(x: SyntaxTree.Type);
		BEGIN
			IF x = SyntaxTree.importType THEN w.String("importType")
			ELSIF x = SyntaxTree.typeDeclarationType THEN w.String("typeDeclarationType");
			ELSE
				AlertString("InvalidType");
			END;
		END VisitType;

		PROCEDURE {OVERRIDE}VisitBasicType*(x: SyntaxTree.BasicType);
		BEGIN
			IF x.typeDeclaration # NIL THEN
				Identifier(x.typeDeclaration.name);
			ELSE
				Identifier(x.name);
			END
		END VisitBasicType;

		PROCEDURE {OVERRIDE}VisitBooleanType*(x: SyntaxTree.BooleanType);
		BEGIN
			VisitBasicType(x);
		END VisitBooleanType;

		PROCEDURE {OVERRIDE}VisitSetType*(x: SyntaxTree.МнвоType);
		BEGIN
			VisitBasicType(x);
		END VisitSetType;

		PROCEDURE {OVERRIDE}VisitSizeType*(x: SyntaxTree.SizeType);
		BEGIN
			VisitBasicType(x);
		END VisitSizeType;

		PROCEDURE {OVERRIDE}VisitCharacterType*(x: SyntaxTree.CharacterType);
		BEGIN
			VisitBasicType(x);
		END VisitCharacterType;

		PROCEDURE {OVERRIDE}VisitIntegerType*(x: SyntaxTree.IntegerType);
		BEGIN
			VisitBasicType(x);
		END VisitIntegerType;

		PROCEDURE {OVERRIDE}VisitFloatType*(x: SyntaxTree.FloatType);
		BEGIN
			VisitBasicType(x);
		END VisitFloatType;

		PROCEDURE {OVERRIDE}VisitComplexType*(x: SyntaxTree.ComplexType);
		BEGIN
			VisitBasicType(x);
		END VisitComplexType;

		PROCEDURE {OVERRIDE}VisitByteType*(x: SyntaxTree.ByteType);
		BEGIN
			VisitBasicType(x);
		END VisitByteType;

		PROCEDURE {OVERRIDE}VisitQualifiedType*(x: SyntaxTree.QualifiedType);
		BEGIN
			IF x.resolved = SyntaxTree.invalidType THEN
				AlertString("(*unresolved*)"); RETURN
			ELSIF x.qualifiedIdentifier = NIL THEN
				AlertString("NIL (* missing qualified identifier *)"); RETURN END;
			IF info THEN
				w.String("VisitQualifiedType:") END;
			IF x.resolved = NIL THEN
				AlertString("«не найденный тип»");
				RETURN END;
			useCase := (x.resolved IS SyntaxTree.BasicType) & (x.scope.Level() = 0);
			IF useCase THEN
				w.String("«Это якобы базовый тип»"); (* никогда не случается *)
				HALT(3330); (* я думал, что эта ветка должна обрабатываться в VisitBasicType, но что-то пошло не так *)
			END;
			(* QualifiedIdentifier(x.qualifiedIdentifier); *)
		END VisitQualifiedType;

		PROCEDURE {OVERRIDE}VisitStringType*(x: SyntaxTree.StringType);
		BEGIN
			w.String("STRING"); w.String("(* len = "); w.Int(x.length,1); w.String(" *)");
		END VisitStringType;

		PROCEDURE {OVERRIDE}VisitEnumerationType*(x: SyntaxTree.EnumerationType);
		VAR e: SyntaxTree.Constant; 
		BEGIN
			IF x.enumerationBase # NIL THEN
				Type(x.enumerationBase);
			END;
			e := x.enumerationScope.firstConstant; 
			WHILE (e # NIL) DO
				VisitConstant(e);
				e := e.nextConstant;
			END;
		END VisitEnumerationType;

		PROCEDURE {OVERRIDE}VisitRangeType*(x: SyntaxTree.RangeType);
		BEGIN VisitBasicType(x);
		END VisitRangeType;

		PROCEDURE {OVERRIDE}VisitArrayType*(x: SyntaxTree.ArrayType);
		BEGIN
			IF x.length # NIL THEN Expression(x.length); END;
			Type(x.arrayBase);
		END VisitArrayType;

		PROCEDURE {OVERRIDE}VisitNilType*(x: SyntaxTree.NilType);
		BEGIN
			w.String("NILTYPE");
		END VisitNilType;

		PROCEDURE {OVERRIDE}VisitAddressType*(x: SyntaxTree.AddressType);
		BEGIN
			w.String("ADDRESSTYPE");
		END VisitAddressType;

		PROCEDURE {OVERRIDE}VisitObjectType*(x: SyntaxTree.ObjectType);
		BEGIN
			VisitBasicType(x);
		END VisitObjectType;

		PROCEDURE {OVERRIDE}VisitAnyType*(x: SyntaxTree.AnyType);
		BEGIN
			VisitBasicType(x);
		END VisitAnyType;

		PROCEDURE {OVERRIDE}VisitMathArrayType*(x: SyntaxTree.MathArrayType);
		BEGIN
			IF ~(x.form = SyntaxTree.Tensor) THEN 
			ELSE
				IF ~(x.length = NIL) THEN
					Expression(x.length);
				END;
				WHILE(x.arrayBase # NIL) & (x.arrayBase IS SyntaxTree.MathArrayType) DO
					x := x.arrayBase(SyntaxTree.MathArrayType);
					IF ~(x.length = NIL) THEN
						Expression(x.length);
					END;
				END;
			END;
			IF x.arrayBase # NIL THEN
				Type(x.arrayBase);
			END;
		END VisitMathArrayType;

		PROCEDURE PointerFlags(x: SyntaxTree.PointerType);
		BEGIN
			IF x.modifiers # NIL THEN
				Modifiers(x.modifiers)
			END;
		END PointerFlags;

		PROCEDURE ObjectFlags ( rec: SyntaxTree.RecordType; x: SyntaxTree.PointerType);
		BEGIN
			IF x.modifiers # NIL THEN
				Modifiers(x.modifiers)
			END;
		END ObjectFlags;

		PROCEDURE {OVERRIDE}VisitPointerType*(x: SyntaxTree.PointerType);
		VAR pointerBase: SyntaxTree.Type;
		BEGIN
			IF x.pointerBase = NIL THEN
				w.BeginAlert; Keyword("POINTER TO NIL"); w.EndAlert;
			ELSE
				pointerBase := x.pointerBase;
				IF x.isHidden THEN
					Type(x.pointerBase);
				ELSIF (pointerBase IS SyntaxTree.RecordType) & (pointerBase(SyntaxTree.RecordType).isObject) THEN
					VisitRecordType(pointerBase(SyntaxTree.RecordType))
				ELSE
					PointerFlags(x); 
					IF info THEN
						(* PodrobnajaPechatq.Pech(w,x.pointerBase); w.Update() *) END;
					Type(x.pointerBase);
				END;
			END;
		END VisitPointerType;

		PROCEDURE {OVERRIDE}VisitPortType*(x: SyntaxTree.PortType);
		BEGIN
			Keyword("PORT");
			IF x.direction = SyntaxTree.OutPort THEN
				w.String(" "); Keyword("OUT")
			ELSE
				ASSERT(x.direction = SyntaxTree.InPort);
				w.String(" "); Keyword("IN");
			END;
			IF x.sizeExpression # NIL THEN
				w.String(" ("); Expression(x.sizeExpression); w.String(")");
			END;
		END VisitPortType;

		PROCEDURE {OVERRIDE}VisitCellType*(x: SyntaxTree.CellType);
		BEGIN
			IF x.isCellNet THEN
				Keyword("CELLNET"); w.String(" ");
			ELSE
				Keyword("CELL"); w.String(" ");
			END;
			Modifiers(x.modifiers);
			IF x.firstParameter # NIL THEN ParameterList(x.firstParameter) END;
			Scope(x.cellScope);

			IF (x.cellScope IS SyntaxTree.CellScope) & (x.cellScope(SyntaxTree.CellScope).bodyProcedure # NIL) THEN
				Body(x.cellScope(SyntaxTree.CellScope).bodyProcedure.procedureScope.body)
			END;
		END VisitCellType;

			PROCEDURE {OVERRIDE}VisitRecordType*(x: SyntaxTree.RecordType);
			VAR prevScope: SyntaxTree.Scope;
			BEGIN
			IF x.isObject THEN
				IF x.pointerType # NIL THEN ObjectFlags(x, x.pointerType)
				END;
				Scope(x.recordScope);

				IF (x.recordScope.bodyProcedure # NIL) THEN
					Body(x.recordScope.bodyProcedure.procedureScope.body)
				END;
			ELSE
				Modifiers(x.modifiers);
				prevScope := currentScope;
				currentScope := x.recordScope;
				VariableList(x.recordScope.firstVariable);
				IF x.recordScope.procedures # NIL THEN w.Ln; ProcedureList(x.recordScope.procedures) END;
				currentScope := prevScope;
				IF (x.pointerType = NIL) & (x.recordScope.procedures # NIL) THEN 
					w.String("</Scope><!-- вписано руками из-за визитора -->");
					w.DecIndent;
					w.Ln; ProcedureList(x.recordScope.procedures);
					Indent; w.String("<Scope><!-- руками из-за визитора - 2-->");
					w.IncIndent;
					END;
			END;
		END VisitRecordType;

		PROCEDURE Flag(ивти: SyntaxTree.ИндВТаблИдент; VAR first: BOOLEAN);
		VAR name: SyntaxTree.IdentifierString; identifier: SyntaxTree.Identifier;
		BEGIN
			IF first THEN w.String("{") ELSE w.String(", ") END;
			first := FALSE;
			identifier := Global.GetIdentifier(ивти,printCase);
			Basic.GetString(identifier.И,name);
			w.String(name);
		END Flag;

		PROCEDURE FlagEnd(first: BOOLEAN);
		BEGIN
			IF ~first THEN w.String("} ") END;
		END FlagEnd;

		PROCEDURE Value(identifier: SyntaxTree.ИндВТаблИдент; value: SIGNED64; VAR first: BOOLEAN);
		BEGIN
			Flag(identifier,first);
			w.String("("); w.Int(value,1); w.String(")");
		END Value;

		PROCEDURE {OVERRIDE}VisitProcedureType*(x: SyntaxTree.ProcedureType);
		VAR first: BOOLEAN;
		BEGIN
			IF x.stackAlignment > 1 THEN Value(Global.NameAlignStack,x.stackAlignment,first) END;
			IF (x.modifiers # NIL) & info THEN
				Modifiers(x.modifiers);
			END;
			(*
			CallingConvention(x.callingConvention);
			IF x.isDelegate THEN w.String("{DELEGATE}") END;
			*)
			IF (x.firstParameter # NIL) OR (x.returnType # NIL) THEN
				w.IncIndent;
				ParameterList(x.firstParameter);
				w.DecIndent;
			END;
			IF x.returnType # NIL THEN
				Type(x.returnType)
			END;
		END VisitProcedureType;

		(*** expressions ****)

		PROCEDURE ExpressionList(x: SyntaxTree.ExpressionList);
		VAR i: SIZE;  expression: SyntaxTree.Expression;
		BEGIN
			FOR i := 0 TO x.Length() - 1 DO
				expression := x.GetExpression( i );  Expression(expression);
			END;
		END ExpressionList;

		PROCEDURE Expression*(x: SyntaxTree.Expression);
		BEGIN
			IF DebugPosition THEN TRACE(x.position.start, x.position.end, x.end.start, x.end.end) END;
			IF x = NIL THEN
				AlertString("nil expression");
			ELSIF обрабатываемModifier THEN
				VExpression(x);
			END;
			(* w.Update; *)
		END Expression;

		PROCEDURE {OVERRIDE}VisitExpression*(x: SyntaxTree.Expression);
		BEGIN
			AlertString("InvalidExpression");
		END VisitExpression;

		PROCEDURE {OVERRIDE}VisitSet*(x: SyntaxTree.Set);
		BEGIN ExpressionList(x.elements) END VisitSet;

		PROCEDURE {OVERRIDE}VisitMathArrayExpression*(x: SyntaxTree.MathArrayExpression);
		BEGIN ExpressionList(x.elements) END VisitMathArrayExpression;

		PROCEDURE {OVERRIDE}VisitUnaryExpression*(x: SyntaxTree.UnaryExpression);
		BEGIN
			Expression(x.left);
		END VisitUnaryExpression;

		PROCEDURE {OVERRIDE}VisitBinaryExpression*(x: SyntaxTree.BinaryExpression);
		BEGIN
			Expression(x.left);
			Expression(x.right);
		END VisitBinaryExpression;

		PROCEDURE {OVERRIDE}VisitRangeExpression*(x: SyntaxTree.RangeExpression);
		BEGIN
			IF x.missingFirst & x.missingLast & x.missingStep THEN
				(* ничего не делаем *)
			ELSE
				IF ~x.missingFirst THEN Expression(x.first) END;
				IF ~x.missingLast THEN Expression(x.last) END;
				IF ~x.missingStep THEN
					Expression(x.step)
				END
			END;
		END VisitRangeExpression;

		PROCEDURE {OVERRIDE}VisitTensorRangeExpression*(x: SyntaxTree.TensorRangeExpression);
		BEGIN
		END VisitTensorRangeExpression;

		PROCEDURE {OVERRIDE}VisitConversion*(x: SyntaxTree.Conversion);
		BEGIN
			Expression(x.expression);
		END VisitConversion;

		PROCEDURE {OVERRIDE}VisitDesignator*(x: SyntaxTree.Designator);
		BEGIN
			AlertString("InvalidDesignator");
		END VisitDesignator;

		PROCEDURE {OVERRIDE}VisitIdentifierDesignator*(x: SyntaxTree.IdentifierDesignator);
		BEGIN
		END VisitIdentifierDesignator;

		PROCEDURE {OVERRIDE}VisitSelectorDesignator*(x: SyntaxTree.SelectorDesignator);
		BEGIN
			Expression(x.left);
		END VisitSelectorDesignator;

		PROCEDURE {OVERRIDE}VisitBracketDesignator*(x: SyntaxTree.BracketDesignator);
		BEGIN
			Expression(x.left);
			ExpressionList(x.parameters);
		END VisitBracketDesignator;

		PROCEDURE {OVERRIDE}VisitParameterDesignator*(x: SyntaxTree.ParameterDesignator);
		BEGIN
			Expression(x.left);
			ExpressionList(x.parameters);
		END VisitParameterDesignator;

		PROCEDURE {OVERRIDE}VisitIndexDesignator*(x: SyntaxTree.IndexDesignator);
		BEGIN
			Expression(x.left);
			ExpressionList(x.parameters);
		END VisitIndexDesignator;

		PROCEDURE {OVERRIDE}VisitArrowDesignator*(x: SyntaxTree.ArrowDesignator);
		BEGIN
			Expression(x.left);
		END VisitArrowDesignator;

		PROCEDURE {OVERRIDE}VisitSymbolDesignator*(x: SyntaxTree.SymbolDesignator);
		BEGIN
			IF (x.left # NIL) & ~x.left.isHidden THEN
			Expression(x.left); 
			END;
			IF ~(x.symbol IS SyntaxTree.Operator) THEN
				(* Тут всё равно будет вопрос, что делать с Modifier-ами *)
				Identifier(x.symbol.name);
			END;
		END VisitSymbolDesignator;

		PROCEDURE {OVERRIDE}VisitSupercallDesignator*(x: SyntaxTree.SupercallDesignator);
		BEGIN
			Expression(x.left);
			w.String( "^" );
		END VisitSupercallDesignator;

		PROCEDURE {OVERRIDE}VisitSelfDesignator*(x: SyntaxTree.SelfDesignator);
		BEGIN
			ASSERT(x.left = NIL);
		END VisitSelfDesignator;

		PROCEDURE {OVERRIDE}VisitResultDesignator*(x: SyntaxTree.ResultDesignator);
		BEGIN
			ASSERT(x.left = NIL);
		END VisitResultDesignator;

		PROCEDURE {OVERRIDE}VisitDereferenceDesignator*(x: SyntaxTree.DereferenceDesignator);
		BEGIN
			Expression(x.left);
			w.String( "^" );
		END VisitDereferenceDesignator;

		PROCEDURE {OVERRIDE}VisitTypeGuardDesignator*(x: SyntaxTree.TypeGuardDesignator);
		BEGIN
			Expression(x.left);
			w.String("(");
			IF x.typeExpression # NIL THEN Expression(x.typeExpression) ELSE Type(x.type) END;
			w.String(")");
		END VisitTypeGuardDesignator;

		PROCEDURE {OVERRIDE}VisitProcedureCallDesignator*(x: SyntaxTree.ProcedureCallDesignator);
		BEGIN
			Expression(x.left);
			w.String("("); ExpressionList(x.parameters); w.String(")");
		END VisitProcedureCallDesignator;

		PROCEDURE {OVERRIDE}VisitInlineCallDesignator*(x: SyntaxTree.InlineCallDesignator);
		BEGIN
			Scope(x.block.scope);
			VisitStatementBlock(x.block);
		END VisitInlineCallDesignator;

		PROCEDURE {OVERRIDE}VisitBuiltinCallDesignator*(x: SyntaxTree.BuiltinCallDesignator);
		BEGIN
			IF x.left # NIL THEN
				Expression(x.left);
			ELSE
				w.String("BUILTIN(");
				w.Int(x.id,1);
				w.String(")");
			END;
			w.String("("); ExpressionList(x.parameters); w.String(")");
		END VisitBuiltinCallDesignator;

		PROCEDURE {OVERRIDE}VisitValue*(x: SyntaxTree.Value);
		BEGIN
			AlertString("InvalidValue");
		END VisitValue;

		PROCEDURE {OVERRIDE}VisitBooleanValue*(x: SyntaxTree.BooleanValue);
		BEGIN
			IF Scanner.ВариантыПеревода.Uppercase = printCase THEN
				IF x.value THEN w.String("TRUE" ) ELSE w.String( "FALSE" ) END
			ELSIF Scanner.ВариантыПеревода.Русский = printCase THEN
				IF x.value THEN w.String("правда" ) ELSE w.String( "ложь" ) END
			ELSE
				IF x.value THEN w.String("true" ) ELSE w.String( "false" ) END
			END
		END VisitBooleanValue;

		PROCEDURE Hex(x: SIGNED64);
		VAR i: SIGNED32; a: ARRAY 20 OF CHAR; y: SIGNED64;
		BEGIN
			i := 0;
			REPEAT
				y := x MOD 10H;
				IF y < 10 THEN a[i] := CHR(y+ORD('0'))
				ELSE a[i] := CHR(y-10+ORD('A'))
				END;
				x := x DIV 10H;
				INC(i);
			UNTIL (x=0) OR (i=16);
			IF y >=10 THEN w.Char("0") END;
			REPEAT DEC( i ); w.Char( a[i] ) UNTIL i = 0
		END Hex;

		PROCEDURE {OVERRIDE}VisitIntegerValue*(x: SyntaxTree.IntegerValue);
		BEGIN
			w.Int(x.value,1);
		END VisitIntegerValue;

		PROCEDURE {OVERRIDE}VisitCharacterValue*(x: SyntaxTree.CharacterValue);
		BEGIN
			Hex( ORD(x.value));  w.String( "X" );
		END VisitCharacterValue;

		PROCEDURE {OVERRIDE}VisitSetValue*(x: SyntaxTree.SetValue);
		VAR i: SIGNED32;
		BEGIN
			w.String("{");
			i := 0;
			WHILE (i<MAX(Basic.Set)) & ~(i IN x.value)  DO
				INC(i);
			END;
			IF i<MAX(Basic.Set) THEN
				w.Int(i,1);
				INC(i);
				WHILE i < MAX(Basic.Set) DO
					IF i IN x.value THEN w.String(","); w.Int(i,1); END;
					INC(i)
				END
			END;
			w.String("}");
		END VisitSetValue;

		PROCEDURE {OVERRIDE}VisitMathArrayValue*(x: SyntaxTree.MathArrayValue);
		BEGIN
			VisitMathArrayExpression(x.array);
		END VisitMathArrayValue;

		PROCEDURE FormatedFloat(value: FLOAT64; subtype: SIGNED32);
		VAR string: ARRAY 128 OF CHAR; i: SIGNED32;
		BEGIN
			IF subtype = Scanner.Real THEN
				ws.SetPos(0); ws.Float(value,11(*mantissa X.XXXXXXX *)+5(*exponent E+XXX *)); ws.Get(string);
				i := 0;
				WHILE(i<LEN(string)) & (string[i] # 0X) DO
					IF string[i] = "D" THEN string[i] := "E" END;
					INC(i);
				END;
				w.String(string);
			ELSIF subtype = Scanner.Longreal THEN
				ws.SetPos(0); ws.Float(value,20(*mantissa X.X..(16)..X *)+5(*exponent E+XXX *) ); ws.Get(string);
				i := 0;
				WHILE(i<LEN(string)) & (string[i] # 0X) DO
					IF string[i] = "E" THEN string[i] := "D" END;
					INC(i);
				END;
				w.String(string);
			ELSE
				w.Float(value,31)
			END;
		END FormatedFloat;

		PROCEDURE {OVERRIDE}VisitRealValue*(x: SyntaxTree.RealValue);
		BEGIN FormatedFloat(x.value, x.subtype)
		END VisitRealValue;

		PROCEDURE {OVERRIDE}VisitComplexValue*(x: SyntaxTree.ComplexValue);
		BEGIN
			IF (x.realValue = 0) & (x.imagValue = 1) THEN
				w.String("IMAG")
			ELSE
				w.String("(");
				FormatedFloat(x.realValue, x.subtype)	;
				w.String(" ");
				IF x.imagValue > 0 THEN w.String("+") END;
				FormatedFloat(x.imagValue, x.subtype);
				w.String("*IMAG)")
			END
		END VisitComplexValue;

		PROCEDURE {OVERRIDE}VisitStringValue*(x: SyntaxTree.StringValue);
		VAR i: SIGNED32; ch: CHAR;
		BEGIN
			i := 0;
			w.Char('\');
			w.Char('"');
			WHILE (i < LEN( x.value )) & (x.value[i] # 0X) DO
				ch := x.value[i];
				IF ch = Scanner.CR THEN w.String("\n")
				ELSIF ch = Scanner.LF THEN (* ignore *)
				ELSIF ch = Scanner.TAB THEN w.String("\t")
				ELSIF ch = '\' THEN w.String("\\")
				ELSIF ch = '"' THEN w.String(\"""\); (* " *)
				ELSE w.Char(ch)
				END;
				INC( i );
			END;
			w.Char('"');
			w.Char('\');
		END VisitStringValue;

		PROCEDURE {OVERRIDE}VisitNilValue*(x: SyntaxTree.NilValue);
		BEGIN 
		IF info THEN BeginComment; Type(x.type); EndComment; END;
		END VisitNilValue;

		PROCEDURE {OVERRIDE}VisitEnumerationValue*(x: SyntaxTree.EnumerationValue);
		BEGIN w.Int(x.value,1);
		END VisitEnumerationValue;

		PROCEDURE {OVERRIDE}VisitProcedureValue*(x: SyntaxTree.ProcedureValue);
		BEGIN
			Symbol(x.value);
		END VisitProcedureValue;

		(**** symbols ****)

		PROCEDURE Symbol*(x: SyntaxTree.Symbol);
		BEGIN
			IF x = NIL THEN
				AlertString("nil symbol");
			ELSE
				VSymbol(x);
			END
		END Symbol;

		PROCEDURE {OVERRIDE}VisitSymbol*(x: SyntaxTree.Symbol);
		BEGIN
			AlertString("InvalidSymbol"); (* См. VSymbol *)
		END VisitSymbol;

		PROCEDURE Visible(symbol: SyntaxTree.Symbol): BOOLEAN;
		BEGIN
			RETURN TRUE (* (SyntaxTree.Public * symbol.access # {}) OR (mode > SymbolFile) *)
				(* using only exported symbols does not work since there might be dependencies ... *)
		END Visible;
		
		PROCEDURE Exported(symbol: SyntaxTree.Symbol): BOOLEAN;
		BEGIN
			RETURN symbol.access * {SyntaxTree.ProtectedRead, SyntaxTree.ProtectedWrite, SyntaxTree.PublicRead, SyntaxTree.PublicWrite} # {}
		END Exported;
		
		
		PROCEDURE ВычислиИНапишиЗаготовкуРусскогоИмени(ч: SyntaxTree.Symbol);
		VAR И, п: Basic.String; прецеденты : Strings.String;
		BEGIN
			WITH ч:
			| SyntaxTree.Module DO
				IF УтилитыДляПереводаКода.НеАнглийскийИдентификаторSyntaxTree(ч.name) THEN
					Identifier(ч.name);
					RETURN END;
			| SyntaxTree.Procedure DO
					IF (ч.super # NIL) & (ч.super # ч) THEN
						(* r.PechKL(ч.super); *)
						И := ч.super.name.И;
						п := ч.super.name.п;
						(* условие - дикий костыль, но иначе не выходит *)
						ASSERT((п # Basic.emptyString) & (п # Basic.invalidString));
						IF (п # Basic.emptyString) &
								((п # И) OR (п = И) & УтилитыДляПереводаКода.НеАнглийскийИдентификаторSyntaxTree(ч.name)) THEN
							Basic.ПечString(w,ч.super.name.п);
							RETURN 
						ELSE 
							AlertString("Процедура перекрыта, а перевод предка не сделан или совпадает с английским, ищи «поправь»!");
							w.String("«поправь»");
							RETURN END END
			ELSE 
				IF УтилитыДляПереводаКода.НеАнглийскийИдентификаторSyntaxTree(ч.name) THEN
					Identifier(ч.name); 
					RETURN END END;
			прецеденты := ПрецедентыПереводов.ДайПрецедентыДляСтроки(ч.name.И);
			IF прецеденты # NIL THEN w.String(прецеденты^) END;
		END ВычислиИНапишиЗаготовкуРусскогоИмени;
		
		
		PROCEDURE ПишиСимволВСловарьПереводов(ч : SyntaxTree.Symbol);
		BEGIN
			w.String('<Scope en="');
			Identifier(ч.name);
			w.String('" ru="');
			ВычислиИНапишиЗаготовкуРусскогоИмени(ч);
			w.String('"');
			IF Exported(ч) THEN w.String(' ee="1"') END;
			w.String(">");
			w.IncIndent END ПишиСимволВСловарьПереводов;


		PROCEDURE ПишиСимволВПереименованияДубликатов(ч : SyntaxTree.Symbol);
		VAR И, п: Basic.String;
		BEGIN
			w.String("<Scope ");
			IF ~ч.затеняетЛиОдноимённыйВышестоящий THEN
				w.String('imja="');
				Identifier(ч.name);
				w.String('"');
			ELSE
				w.String('iz="');
				Identifier(ч.name);
				w.String('" v="');
				w.String("l"); 
				w.Int(счётчикРастеняющихПриставок,0);
				INC(счётчикРастеняющихПриставок);
				Identifier(ч.name);
				WITH ч:
				| SyntaxTree.Procedure DO
					(* вряд ли есть смысл в проверке на затенение и перекрытие, но 
						пусть будет *)
					IF (ч.super # NIL) & (ч.super # ч) THEN
						И := ч.super.name.И;
						п := ч.super.name.п;
						ASSERT((п # Basic.emptyString) & (п # Basic.invalidString));
						IF ~(п # Basic.emptyString) &
								((п # И) OR (п = И) & УтилитыДляПереводаКода.НеАнглийскийИдентификаторSyntaxTree(ч.name)) THEN
							AlertString("Процедура перекрыта и есть проблемы с затенением, ищи «поправь»!");
							w.String(" «поправь»") END END
				ELSE END;
				w.String('"')
			END; 
			(** Стоит знать, что мы переименовываем экспортируемую сущность *)
			IF Exported(ч) THEN w.String(' ee="1"') END;
			w.String(">");
			w.IncIndent;
			END ПишиСимволВПереименованияДубликатов;

		
		PROCEDURE PrintSymbol(ч: SyntaxTree.Symbol);
		BEGIN
			IF mode = СловарьПереводов THEN
				ПишиСимволВСловарьПереводов(ч)
			ELSIF mode = ПереименованияДубликатов THEN
				ПишиСимволВПереименованияДубликатов(ч) 
			ELSE
				HALT(3462) END END PrintSymbol;
		
		
		PROCEDURE PrintProcedure(x: SyntaxTree.Procedure);
		BEGIN
			PrintSymbol(x);
		END PrintProcedure;
		
		
		PROCEDURE PrintEndSymbol(x: SyntaxTree.Symbol);
		BEGIN
			IF x.затеняетЛиОдноимённыйВышестоящий & (mode # ПереименованияДубликатов) THEN
				AlertString("Затенение одноимённого вышестоящего - словарь не годен. Ищи в документации процесс растенения"); 
				HALT(305) END;
			w.String('</Scope>');
			w.DecIndent;
			(* w.Ln; *)
		END PrintEndSymbol;

		PROCEDURE {OVERRIDE}VisitTypeDeclaration*(x: SyntaxTree.TypeDeclaration);
		BEGIN
			IF Visible(x) THEN
				IF (x.access # SyntaxTree.Hidden) THEN
					PrintSymbol(x);
					IF x.access # SyntaxTree.Hidden THEN
						Type(x.declaredType);
					END;
					PrintEndSymbol(x);
				END;
			END;
		END VisitTypeDeclaration;

		PROCEDURE TypeDeclarationList(x: SyntaxTree.TypeDeclaration);
		BEGIN
			WHILE(x # NIL) DO
				Indent('ё');
				Symbol(x);
				x := x.nextTypeDeclaration;
			END;
		END TypeDeclarationList;

		PROCEDURE {OVERRIDE}VisitConstant*(x: SyntaxTree.Constant);
		BEGIN
			IF Visible(x) THEN
				IF x.access # SyntaxTree.Hidden THEN
					PrintSymbol(x);
					IF x.value # NIL THEN
						Expression(x.value)	END;
					PrintEndSymbol(x) END END;
		END VisitConstant;

		PROCEDURE ConstantList(x: SyntaxTree.Constant);
		BEGIN
			Indent('ё');  
			WHILE(x # NIL) DO
				IF (x.access # SyntaxTree.Hidden) THEN
					Indent('й');
					Symbol(x);
				END;
				x := x.nextConstant;
			END;
		END ConstantList;

		PROCEDURE {OVERRIDE}VisitVariable*(x: SyntaxTree.Variable);
		BEGIN
			IF Visible(x) THEN
				IF (x.access # SyntaxTree.Hidden) THEN
					PrintSymbol(x);
					IF x.initializer # NIL THEN
						Expression (x.initializer);
					END;
					Type(x.type);
					PrintEndSymbol(x);
				END;
			END;
		END VisitVariable;

		PROCEDURE VariableList(x: SyntaxTree.Variable);
		VAR next: SyntaxTree.Variable;

			PROCEDURE Flags(l0x: SyntaxTree.Variable);
			VAR first: BOOLEAN;
			BEGIN
				first := TRUE;
				IF l0x.fixed THEN
					Value(Global.NameFixed,l0x.alignment,first)
				ELSIF l0x.alignment > 1 THEN
					Value(Global.NameAligned,l0x.alignment,first)
				ELSIF l0x.fictive THEN
					Value(Global.NameFictive, l0x.fictiveOffset, first);
				END;
				IF l0x.untraced THEN
					Flag(Global.NameUntraced,first)
				END;
				FlagEnd(first);
			END Flags;

		BEGIN
			WHILE(x # NIL) DO
				next := x.nextVariable;
				IF (x.access # SyntaxTree.Hidden) THEN
					Indent('ч');
					PrintSymbol(x); 
					Flags(x);
					IF x.initializer # NIL THEN
						Expression (x.initializer) END;
					IF x.access # SyntaxTree.Hidden THEN
						Type(x.type) END;
					PrintEndSymbol(x) END;
				x := next;
			END;
		END VariableList;

		PROCEDURE AliasList(x: SyntaxTree.Alias);
		BEGIN
			(* видимо, это ALIAS OF, его нету в исходниках A2 *)	
		END AliasList;

		PROCEDURE {OVERRIDE}VisitParameter*(x: SyntaxTree.Parameter);
		BEGIN
			IF (x.access # SyntaxTree.Hidden) THEN
				PrintSymbol(x);
				IF x.modifiers # NIL THEN Modifiers(x.modifiers); END;
				IF x.defaultValue # NIL THEN
					Expression(x.defaultValue);
				END;
				Type(x.type);
			END;
			PrintEndSymbol(x);
		END VisitParameter;

		PROCEDURE ParameterList*(x: SyntaxTree.Parameter);
		VAR next: SyntaxTree.Parameter; 

			PROCEDURE Flags(l1x: SyntaxTree.Parameter);
			BEGIN
				IF l1x.modifiers # NIL THEN
					Modifiers(l1x.modifiers)
				END;
			END Flags;

		BEGIN
			WHILE(x # NIL) DO
				next := x.nextParameter;
				IF (x.access # SyntaxTree.Hidden) THEN
					Indent('щ');
					PrintSymbol(x); 
					Flags(x);
					IF x.defaultValue # NIL THEN
						Expression(x.defaultValue) END;
					IF x.access # SyntaxTree.Hidden THEN
						Type(x.type) END;
					PrintEndSymbol(x) END;
				x := next;
			END;
		END ParameterList;

		(* PROCEDURE Access(access: SET);
		BEGIN
			IF SyntaxTree.PublicWrite IN access THEN w.String(" PublicWrite") END;
			IF SyntaxTree.ProtectedWrite IN access THEN w.String(" ProtectedWrite") END;
			IF SyntaxTree.InternalWrite IN access THEN w.String(" InternalWrite") END;
			IF SyntaxTree.PublicRead IN access THEN w.String(" PublicRead") END;
			IF SyntaxTree.ProtectedRead IN access THEN w.String(" ProtectedRead") END;
			IF SyntaxTree.InternalRead IN access THEN w.String(" InternalRead") END;
		END Access; *)

		PROCEDURE {OVERRIDE}VisitProcedure*(x: SyntaxTree.Procedure);
		VAR type: SyntaxTree.ProcedureType; 
		BEGIN
			IF Visible(x) THEN

				type := x.type(SyntaxTree.ProcedureType);

				(* Сами параметры лежат в области определения процедуры, но если выражения
					для них породят что-то новое, то оно лежит где? *)
				IF (type.selfParameter # NIL) & ~(type.selfParameter.name.И = "@Self") THEN
					ParameterList(type.selfParameter);
				END;

				PrintProcedure(x);
				IF (type.firstParameter # NIL)  OR (type.returnType # NIL ) THEN  (* print parentheses only if not parameterless procedure *)
					ParameterList(type.firstParameter);
				END;
				IF type.returnType # NIL THEN
					(* Если вдруг здесь будет определено что-то новое, то оно находится ли
						в области видимости процедуры? Вряд ли *)
					Type(type.returnType);
				END;
				IF x.externalName = NIL THEN
					ProcedureScope(x.procedureScope);
				END;
				PrintEndSymbol(x);
			END;
		END VisitProcedure;

		PROCEDURE {OVERRIDE}VisitOperator*(x: SyntaxTree.Operator);
		VAR type: SyntaxTree.ProcedureType;
			first: BOOLEAN;
		BEGIN
			IF Visible(x) THEN
				Indent('ъ');
				first := TRUE;

				type := x.type(SyntaxTree.ProcedureType);
				PrintSymbol(x);
				ParameterList(type.firstParameter);
				IF type.returnType # NIL THEN
					Type(type.returnType);
				END;

				IF x.externalName = NIL THEN
					ProcedureScope(x.procedureScope);
				END;
				PrintEndSymbol(x);
			END
		END VisitOperator;

		PROCEDURE ProcedureList(list: SyntaxTree.ProcedureList);
		VAR x: SyntaxTree.Procedure; i: SIZE; type: SyntaxTree.ProcedureType;
		BEGIN
			FOR i := 0 TO list.Length()-1 DO
				x := list.GetProcedure(i);
				IF (x.access # SyntaxTree.Hidden) & ~(x.isBodyProcedure)
				THEN
					type := x.type(SyntaxTree.ProcedureType);
					IF (type.selfParameter = NIL) OR (type.selfParameter.name.И = "@Self") & (currentScope IS SyntaxTree.RecordScope)
						OR ~ (type.selfParameter.name.И = "@Self") & ~(currentScope IS SyntaxTree.RecordScope)
					THEN
						Symbol(x);
					END;
				END;
				IF (i# list.Length()-1) & (x.access # SyntaxTree.Hidden) THEN w.Ln END;
			END;
		END ProcedureList;

		PROCEDURE {OVERRIDE}VisitImport*(x: SyntaxTree.Import);
		VAR context: SyntaxTree.Identifier; 
		BEGIN
			IF x.moduleName.И # x.name.И THEN
				Indent;
				w.String("<!--ModuleImport ");
				Identifier(x.name);  w.String( " := " );
				Identifier(x.moduleName); 
				w.String("-->") END;
			IF (x.scope = NIL) OR (x.scope.ownerModule = NIL) THEN 
				context := SyntaxTree.invalidIdentifier 
			ELSE 
				context := x.scope.ownerModule.context END;
			(* Здесь были параметры для параметризованного модуля *)
			(* Здесь был контекст *)
		END VisitImport;

		PROCEDURE ImportList(x: SyntaxTree.Import);
		BEGIN
			WHILE(x # NIL) DO
				Symbol(x);
				x := x.nextImport;
			END;
		END ImportList;

		PROCEDURE {OVERRIDE}VisitBuiltin*(x: SyntaxTree.Builtin);
		BEGIN
			Identifier(x.name);
		END VisitBuiltin;

		PROCEDURE BuiltinList(x: SyntaxTree.Builtin);
		BEGIN
			WHILE(x # NIL) DO
				VisitBuiltin(x);
				x := x.nextBuiltin;
			END;
		END BuiltinList;

		PROCEDURE BeginComment;
		BEGIN
			w.BeginComment; w.String("(*");
		END BeginComment;

		PROCEDURE EndComment;
		BEGIN
			w.String("*)");w.EndComment
		END EndComment;

		(*** scopes ****)

		PROCEDURE Scope*(x: SyntaxTree.Scope);
		VAR prevScope: SyntaxTree.Scope;
		BEGIN
			prevScope := currentScope;
			currentScope := x;
			(* ASSERT(currentScope.outerScope = prevScope); (* sanity check *) *)
			WITH x: SyntaxTree.CellScope DO
				IF x.firstImport # NIL THEN ImportList(x.firstImport) END;
			ELSE
			END;
			IF x.firstConstant # NIL THEN ConstantList(x.firstConstant); END;
			IF x.firstTypeDeclaration # NIL THEN TypeDeclarationList(x.firstTypeDeclaration); END;
			IF x.firstVariable # NIL THEN VariableList(x.firstVariable);  END;
			IF x.firstAlias # NIL THEN AliasList(x.firstAlias) END;
			IF x.procedures # NIL THEN w.Ln; ProcedureList(x.procedures) END;
			currentScope := prevScope;
		END Scope;

		PROCEDURE ProcedureScope(x: SyntaxTree.ProcedureScope);
		VAR prevScope: SyntaxTree.Scope;
		BEGIN
			prevScope := currentScope;
			currentScope := x;
			Scope(x);
			IF x.body # NIL THEN Body(x.body) END;
			currentScope := prevScope;
		END ProcedureScope;

		PROCEDURE Statement*(x: SyntaxTree.Statement);
		BEGIN
			IF x = NIL THEN
				AlertString("nil statement")
			ELSE
				IF DebugPosition THEN TRACE(x.position.start, x.position.end, x.end.start, x.end.end) END;
				VStatement(x);
			END
		END Statement;

		PROCEDURE StatementSequence*(x: SyntaxTree.StatementSequence);
		VAR statement: SyntaxTree.Statement;  i: SIZE;
		BEGIN
			IF singleStatement THEN
				w.String("...")
			ELSE
				FOR i := 0 TO x.Length() - 1 DO
					statement := x.GetStatement( i );
					Statement(statement);
				END;
			END;
		END StatementSequence;

		PROCEDURE {OVERRIDE}VisitStatement*(x: SyntaxTree.Statement);
		BEGIN
			AlertString("InvalidStatement");
		END VisitStatement;

		PROCEDURE {OVERRIDE}VisitProcedureCallStatement*(x: SyntaxTree.ProcedureCallStatement);
		BEGIN
			Expression(x.call);
		END VisitProcedureCallStatement;

		PROCEDURE {OVERRIDE}VisitAssignment*(x: SyntaxTree.Assignment);
		BEGIN
			Expression(x.left); Expression(x.right);
		END VisitAssignment;

		PROCEDURE {OVERRIDE}VisitCommunicationStatement*(x: SyntaxTree.CommunicationStatement);
		BEGIN
			Expression(x.left);
			Expression(x.right);
		END VisitCommunicationStatement;

		PROCEDURE IfPart(x: SyntaxTree.IfPart);
		BEGIN
			IF DebugPosition THEN TRACE(x.position.start, x.position.end, x.end.start, x.end.end) END;
			Expression(x.condition);
			StatementSequence(x.statements);
		END IfPart;

		PROCEDURE {OVERRIDE}VisitIfStatement*(x: SyntaxTree.IfStatement);
		VAR i: SIZE;  elsif: SyntaxTree.IfPart;
		BEGIN
			IfPart(x.ifPart);
			FOR i := 0 TO x.ElsifParts() - 1 DO
				elsif := x.GetElsifPart( i );
				IfPart(elsif);
			END;
			IF x.elsePart # NIL THEN
				StatementSequence(x.elsePart);
			END;
		END VisitIfStatement;

		PROCEDURE WithPart(x: SyntaxTree.WithPart);
		BEGIN
			Type(x.type);
			StatementSequence(x.statements);
		END WithPart;

		PROCEDURE {OVERRIDE}VisitWithStatement*(x: SyntaxTree.WithStatement);
		VAR i: SIZE;
		BEGIN
			Expression(x.variable);
			WithPart(x.GetWithPart(0));
			FOR i := 1 TO x.WithParts()-1 DO
				WithPart(x.GetWithPart(i));
			END;
			IF x.elsePart # NIL THEN
				StatementSequence(x.elsePart);
			END;
		END VisitWithStatement;

		PROCEDURE CasePart(x: SyntaxTree.CasePart);
		BEGIN
			ExpressionList(x.elements);
			StatementSequence(x.statements);
		END CasePart;

		PROCEDURE {OVERRIDE}VisitCaseStatement*(x: SyntaxTree.CaseStatement);
		VAR i: SIZE;  case: SyntaxTree.CasePart;
		BEGIN
			Expression(x.variable);
			FOR i := 0 TO x.CaseParts() - 1 DO
				case := x.GetCasePart( i );
				CasePart(case);
			END;
			IF x.elsePart # NIL THEN
				StatementSequence(x.elsePart);
			END;
			Indent('Ё');
		END VisitCaseStatement;

		PROCEDURE {OVERRIDE}VisitWhileStatement*(x: SyntaxTree.WhileStatement);
		BEGIN
			Expression(x.condition);
			StatementSequence(x.statements);
		END VisitWhileStatement;

		PROCEDURE {OVERRIDE}VisitRepeatStatement*(x: SyntaxTree.RepeatStatement);
		BEGIN
			StatementSequence(x.statements);
			Expression(x.condition);
		END VisitRepeatStatement;

		PROCEDURE {OVERRIDE}VisitForStatement*(x: SyntaxTree.ForStatement);
		BEGIN
			Expression(x.variable);
			Expression(x.from);
			Expression(x.to);
			IF x.by # NIL THEN
				Expression(x.by);
			END;
			StatementSequence(x.statements);
			Indent('Й');
		END VisitForStatement;

		PROCEDURE {OVERRIDE}VisitLoopStatement*(x: SyntaxTree.LoopStatement);
		BEGIN
			StatementSequence(x.statements);
		END VisitLoopStatement;

		PROCEDURE {OVERRIDE}VisitExitableBlock*(x: SyntaxTree.ExitableBlock);
		BEGIN
			w.IncIndent;  
			StatementSequence(x.statements); 
			w.DecIndent;
		END VisitExitableBlock;

		PROCEDURE {OVERRIDE}VisitExitStatement*(x: SyntaxTree.ExitStatement);
		BEGIN
		END VisitExitStatement;

		PROCEDURE {OVERRIDE}VisitReturnStatement*(x: SyntaxTree.ReturnStatement);
		BEGIN
			IF x.returnValue # NIL THEN Expression(x.returnValue) END
		END VisitReturnStatement;

		PROCEDURE {OVERRIDE}VisitAwaitStatement*(x: SyntaxTree.AwaitStatement);
		BEGIN
			Expression(x.condition);
		END VisitAwaitStatement;

		PROCEDURE Modifiers(x: SyntaxTree.Modifier);
		VAR (* name: Scanner.СтрокаИдентификатора; *) first: BOOLEAN; savОбрабатываемModifier : BOOLEAN;
		BEGIN
			first := TRUE;
			WHILE x # NIL DO
				(* Indent; w.String("<!-- Modifier ");
				Basic.GetString(x.identifier.И,name);
				w.String(name);
				w.String("-->"); w.Ln; *)
				IF x.expression # NIL THEN
					savОбрабатываемModifier := обрабатываемModifier;
					обрабатываемModifier := TRUE;
					Expression(x.expression);
					обрабатываемModifier := savОбрабатываемModifier;
				END;
				x := x.nextModifier;
			END;
		END Modifiers;
		PROCEDURE {OVERRIDE}VisitStatementBlock*(x: SyntaxTree.StatementBlock);
		BEGIN
			Modifiers(x.blockModifiers);
			IF x.statements # NIL THEN StatementSequence(x.statements);  END;
			Indent('Щ'); 
		END VisitStatementBlock;
		
		(* В коде могут встретиться новые слова, наверное. Но мы пока это игнорируем *)
		PROCEDURE Code(x: SyntaxTree.Code);
		(* VAR  i: SIGNED32; ch: CHAR; cr: BOOLEAN; procedure: SyntaxTree.Procedure; procedureType: SyntaxTree.ProcedureType;
		CONST CR=0DX; *)
		BEGIN
			(* IF (currentScope # NIL) & (currentScope IS SyntaxTree.ProcedureScope) THEN
				procedure := currentScope(SyntaxTree.ProcedureScope).ownerProcedure;
				procedureType := procedure.type(SyntaxTree.ProcedureType);
			END;
			IF (mode >= SourceCode) OR (procedure = NIL) OR (procedure.access * SyntaxTree.Public # {}) & (procedure.isInline OR procedure.isOberonInline) THEN
				(*
				IF x.inlineCode # NIL THEN
					unit := 8;
					w.String(" D"); w.Int(unit,1);
					i := 0; size := x.inlineCode.GetSize();
					WHILE i < size DO
						value := x.inlineCode.GetBits(i,unit);
						w.String(" "); w.Int(value,1);
						INC(i,unit);
					END;
				ELS*)
				IF (x.sourceCode # NIL) THEN
					i := 0;
					ch := x.sourceCode[0];
					WHILE (ch # 0X) DO
						IF ch = CR THEN
							cr := TRUE;
						ELSE
							IF cr THEN Indent; cr := FALSE END;
							w.Char(ch);
						END;
						INC(i); ch := x.sourceCode[i];
					END;
				END;
				(*
				IF x.inlineCode # NIL THEN
					w.String("; ");
					size := x.inlineCode.GetSize() DIV 8;
					FOR i := 0 TO size-1 DO
						value := x.inlineCode.GetBits(i*8,8);
						w.Hex(value,-2); w.String(" ");
					END;
				END;
				*)
			END; *)
		END Code;

		PROCEDURE {OVERRIDE}VisitCode*(x: SyntaxTree.Code);
		BEGIN
			Code(x);
		END VisitCode;

		PROCEDURE Body(x: SyntaxTree.Body);
		BEGIN
			IF x.code # NIL THEN
				Indent('П'); 
				Code(x.code);
			ELSE
				Modifiers(x.blockModifiers);
				IF x.statements # NIL THEN
					StatementSequence(x.statements);
				END;
				IF x.finally # NIL THEN
					StatementSequence(x.finally);
				END;
			END;
			(* "END" written by caller *)
		END Body;

		PROCEDURE {OVERRIDE}VisitModule*(x: SyntaxTree.Module);
		BEGIN Module(x)
		END VisitModule;

		(* Мы не поддерживаем шаблоны *)
		PROCEDURE TemplateParameter(x: SyntaxTree.TemplateParameter);
		BEGIN
			HALT(200)
		END TemplateParameter;


		PROCEDURE Module*(x: SyntaxTree.Module);
		VAR i: SIZE;
		BEGIN
			currentModule := x;

			IF x = NIL THEN
				AlertString("(* no module *)");
				RETURN END;
			currentScope := x.moduleScope.outerScope;
			
			IF mode = ПереименованияДубликатов THEN
				w.String('<Module imja="');
				Identifier(x.name);
				w.String('">');
			ELSE
				w.String('<Module en="');
				Identifier(x.name);
				w.String('" ru="');
				ВычислиИНапишиЗаготовкуРусскогоИмени(x);
				w.String('" rx="1" dyn="1">');
				IF x.parameters # NIL THEN
					FOR i := 0 TO x.parameters.Length()-1 DO
						TemplateParameter(x.parameters.Get(i));
					END;
				END;
				IF (x.context.И # SyntaxTree.invalidIdentifier.И) & (x.context.И#Global.A2Name.И) THEN
					Identifier(x.context)
				END;

				IF (x.type IS SyntaxTree.CellType) & (x.type(SyntaxTree.CellType).firstParameter # NIL) THEN (* for actors *)
					ParameterList(x.type(SyntaxTree.CellType).firstParameter);
				END END;

			w.IncIndent;
			IF x.moduleScope.firstImport # NIL THEN
				ImportList(x.moduleScope.firstImport)
			END;
			Scope(x.moduleScope);
			IF x.moduleScope.firstBuiltin # NIL THEN
				BuiltinList(x.moduleScope.firstBuiltin)
			END;

			IF (x.moduleScope.bodyProcedure # NIL) & (x.moduleScope.bodyProcedure.procedureScope.body # NIL) THEN
				Body(x.moduleScope.bodyProcedure.procedureScope.body)
			END;
			w.DecIndent;
			Indent; 
			w.String("</Module>");
			w.Update;
		END Module;



		PROCEDURE SingleStatement*(b: BOOLEAN);
		BEGIN singleStatement := b
		END SingleStatement;

		PROCEDURE &Init*(l2w: Streams.Writer; l3mode: SIGNED32; l4info: BOOLEAN; l5printCase: Scanner.ВариантыПеревода);
		BEGIN
			SELF.w := Basic.GetWriter(l2w);
			SELF.mode := l3mode; NEW(ws,128); SELF.info := l4info;
			SELF.printCase := l5printCase;
			commentCount := 0; alertCount := 0; singleStatement := FALSE;
		END Init;

	END Printer;

(* debugging helper *)
VAR
	debug: Printer;

	PROCEDURE NewPrinter*(w: Streams.Writer; mode: SIGNED32; info: BOOLEAN; printCase : Scanner.ВариантыПеревода): Printer;
	VAR p: Printer;
	BEGIN
		NEW(p,w,mode,info,printCase); RETURN p
	END NewPrinter;

	PROCEDURE Info*(CONST info: ARRAY OF CHAR; a: ANY);
	VAR symbol: SyntaxTree.Symbol; scope: SyntaxTree.Scope;
	BEGIN
		debug.w := Basic.GetWriter(D.Log);
		D.Ln;
		D.Str(" --------> ");
		D.Str(info);
		D.Str(" ");
		D.Hex(SYSTEM.VAL(ADDRESS,a),8);
		D.Str(" : ");

		IF a = NIL THEN
			D.Str("NIL");
		ELSIF a IS SyntaxTree.Expression THEN
			debug.Expression(a(SyntaxTree.Expression));
			Info("with type",a(SyntaxTree.Expression).type);
		ELSIF a IS SyntaxTree.Type THEN
			IF a IS SyntaxTree.QualifiedType THEN
				D.Str("[QualifiedType] ");
			END;
			debug.Type(a(SyntaxTree.Type))
		ELSIF a IS SyntaxTree.Symbol THEN
			debug.Symbol(a(SyntaxTree.Symbol))
		ELSIF a IS SyntaxTree.Statement THEN
			debug.Statement(a(SyntaxTree.Statement))
		ELSIF a IS SyntaxTree.StatementSequence THEN
			debug.StatementSequence(a(SyntaxTree.StatementSequence));
		ELSIF a IS SyntaxTree.Scope THEN
			scope := a(SyntaxTree.Scope);
			WHILE(scope # NIL) DO
				D.Ln; D.Str("      ");
				IF scope IS SyntaxTree.ModuleScope THEN D.Str("ModuleScope: ")
				ELSIF scope IS SyntaxTree.ProcedureScope THEN D.Str("ProcedureScope: ");
				ELSIF scope IS SyntaxTree.RecordScope THEN D.Str("RecordScope: ");
				ELSE D.Str("Scope: ");
				END;
				symbol := scope.firstSymbol;
				WHILE(symbol # NIL) DO
					debug.Identifier(symbol.name); D.Str(" ");
					symbol := symbol.nextSymbol;
				END;
				scope := scope.outerScope;
			END;
		(*
		ELSIF a IS SyntaxTree.Identifier THEN
			debug.Identifier(a(SyntaxTree.Identifier));
		*)
		ELSIF a IS SyntaxTree.QualifiedIdentifier THEN
			debug.QualifiedIdentifier(a(SyntaxTree.QualifiedIdentifier));
		ELSIF a IS SyntaxTree.Module THEN
			debug.Module(a(SyntaxTree.Module))
		ELSE
			debug.w.String("unknown");
		END;
		D.Update();
	END Info;

	PROCEDURE Init;
	BEGIN
		NEW(debug,D.Log,СловарьПереводов,TRUE, Scanner.ВариантыПеревода.Uppercase);
	END Init;

BEGIN
	Init;
END LisГенЗагСлов.

