(* Raspberry Pi environment *)
(* Copyright (C) Florian Negele *)

MODULE Environment;

IMPORT SYSTEM, Activities, CPU, HeapManager, Interrupts, Trace, Processors, Timer;

CONST Running* = 0; ShuttingDown* = 1; Rebooting* = 2;

VAR memory: SIZE;
VAR heap: HeapManager.Heap;
VAR clock := 0: SIGNED32;
VAR frequency: Timer.Counter;
VAR status* := Running: INTEGER;
VAR uartInterruptInstalled := 0: SIZE;
VAR timerInterruptInstalled := 0: SIZE;
VAR uartInterrupt: Interrupts.Interrupt;
VAR previousTimerHandler := NIL: CPU.InterruptHandler;
VAR atags {UNTRACED}: POINTER {UNSAFE} TO ARRAY 1000H OF SIZE;

PROCEDURE {NORETURN} Abort-;
BEGIN {UNCOOPERATIVE, UNCHECKED}
	IF SYSTEM.GetActivity () # NIL THEN Activities.TerminateCurrentActivity END;
	Activities.TerminateCurrentActivity;
END Abort;

PROCEDURE Allocate- (size: SIZE): ADDRESS;
VAR result, address: ADDRESS;
BEGIN {UNCOOPERATIVE, UNCHECKED}
	result := HeapManager.Allocate (size, heap);
	IF result = NIL THEN RETURN NIL END;
	FOR address := result TO result + size - 1 DO SYSTEM.PUT8 (address, 0) END;
	RETURN result;
END Allocate;

PROCEDURE Deallocate- (address: ADDRESS);
BEGIN {UNCOOPERATIVE, UNCHECKED}
	HeapManager.Deallocate (address, heap);
END Deallocate;

PROCEDURE Write- (character: CHAR);
BEGIN {UNCOOPERATIVE, UNCHECKED}
	WHILE CPU.TXFF IN CPU.ReadMask (CPU.UART_FR) DO END;
	CPU.WriteWord (CPU.UART_DR, ORD (character));
END Write;

PROCEDURE Read- (VAR character: CHAR): BOOLEAN;
BEGIN {UNCOOPERATIVE, UNCHECKED}
	WHILE CPU.RXFE IN CPU.ReadMask (CPU.UART_FR) DO
		IF CAS (uartInterruptInstalled, 0, 1) = 0 THEN
			Interrupts.Install (uartInterrupt, CPU.IRQ);
		END;
		CPU.WriteMask (CPU.IRQEnable2, {25});
		Interrupts.Await (uartInterrupt);
		IF status # Running THEN RETURN FALSE END;
	END;
	character := CHR (CPU.ReadWord (CPU.UART_DR));
	Write (character); RETURN TRUE;
END Read;

PROCEDURE Flush-;
BEGIN {UNCOOPERATIVE, UNCHECKED}
	REPEAT UNTIL CPU.TXFE IN CPU.ReadMask (CPU.UART_FR);
END Flush;

PROCEDURE GetString- (CONST name: ARRAY OF CHAR; VAR result: ARRAY OF CHAR);
BEGIN {UNCOOPERATIVE, UNCHECKED}
	result[0] := 0X
END GetString;

PROCEDURE Clock- (): SIGNED32;
BEGIN RETURN Timer.GetCounter () DIV frequency;
END Clock;

PROCEDURE Sleep- (milliseconds: SIGNED32);
VAR interrupt: Interrupts.Interrupt;
BEGIN {UNCOOPERATIVE, UNCHECKED}
	ASSERT (milliseconds >= 0);
	IF CAS (timerInterruptInstalled, 0, 1) = 0 THEN
		previousTimerHandler := CPU.InstallInterrupt (HandleTimer, CPU.IRQ);
		CPU.WriteWord (CPU.STC1, CPU.ReadWord (CPU.STCLO) + 1000);
		CPU.WriteMask (CPU.IRQEnable1, {1});
	END;
	Interrupts.Install (interrupt, CPU.IRQ); INC (milliseconds, clock);
	WHILE clock - milliseconds < 0 DO Interrupts.Await (interrupt) END;
END Sleep;

PROCEDURE HandleTimer (index: SIZE);
BEGIN {UNCOOPERATIVE, UNCHECKED}
	IF previousTimerHandler # NIL THEN previousTimerHandler (index) END;
	IF 1 IN CPU.ReadMask (CPU.STCS) THEN
		CPU.WriteWord (CPU.STC1, CPU.ReadWord (CPU.STCLO) + 1000);
		CPU.WriteMask (CPU.STCS, {1}); INC (clock);
		CPU.WriteMask (CPU.IRQEnable1, {1});
	END;
END HandleTimer;

PROCEDURE LED- (led: SIGNED32; status: BOOLEAN);
BEGIN {UNCOOPERATIVE, UNCHECKED}
	IF led = 0 THEN
	CPU.MaskIn (CPU.GPFSEL4, {21..23}, {21});
	IF status THEN CPU.WriteMask (CPU.GPSET1, {15}) ELSE CPU.WriteMask (CPU.GPCLR1, {15}) END;
	ELSE (* power led *)
		IF status THEN
			CPU.MaskIn (CPU.GPFSEL3, {15..17}, {17});
		ELSE
			CPU.MaskIn (CPU.GPFSEL3, {15..17}, {15});
		END;
	END;
END LED;



PROCEDURE Shutdown*;
BEGIN {UNCOOPERATIVE, UNCHECKED}
	IF CAS (status, Running, ShuttingDown) # Running THEN RETURN END;
	Trace.StringLn ("system: shutting down...");
	IF uartInterruptInstalled # 0 THEN CPU.WriteMask (CPU.IRQDisable2, {25}); Interrupts.Cancel (uartInterrupt) END;
	IF timerInterruptInstalled # 0 THEN CPU.WriteMask (CPU.IRQDisable1, {1}) END;
END Shutdown;

PROCEDURE Reboot*;
BEGIN {UNCOOPERATIVE, UNCHECKED}
	Shutdown;
	ASSERT (CAS (status, ShuttingDown, Rebooting) = ShuttingDown);
END Reboot;

PROCEDURE {NORETURN} Exit- (status: INTEGER);
BEGIN {UNCOOPERATIVE, UNCHECKED}
	Trace.String ("system: ");
	IF status = Rebooting THEN Trace.StringLn ("rebooting..."); CPU.Reset END;
	Trace.StringLn ("ready for power off or restart"); Flush; CPU.Halt;
END Exit;

PROCEDURE InitTrace;
CONST BaudRate = 115200;
BEGIN {UNCOOPERATIVE, UNCHECKED}
	CPU.WriteMask (CPU.UART_CR, {CPU.UARTEN});
	CPU.Unmask (CPU.GPPUD, {CPU.PUD}); CPU.Delay (150);
	CPU.Mask (CPU.GPPUDCLK0, {14, 15}); CPU.Delay (150);
	CPU.WriteMask (CPU.GPPUDCLK0, {});
	CPU.WriteMask (CPU.UART_ICR, {1, 4..10});
	CPU.WriteWord (CPU.UART_IBRD, CPU.FUARTCLK DIV (16 * BaudRate));
	CPU.WriteWord (CPU.UART_FBRD, (CPU.FUARTCLK MOD (16 * BaudRate)) * 64 DIV (16 * BaudRate));
	CPU.WriteMask (CPU.UART_LCRH, CPU.WLEN8);
	CPU.WriteMask (CPU.UART_IMSC, {CPU.RXIM});
	CPU.WriteMask (CPU.UART_CR, {CPU.UARTEN, CPU.TXE, CPU.RXE});
	Trace.Init; Trace.Char := Write;
END InitTrace;

PROCEDURE InitMemory;
CONST ATAG_MEM = 054410002H;
VAR atag := 0: SIZE; memTag {UNTRACED}: POINTER {UNSAFE} TO RECORD size: SIZE; start: ADDRESS END;
BEGIN {UNCOOPERATIVE, UNCHECKED}
	WHILE atags[atag + 1] # ATAG_MEM DO INC (atag, atags[atag]) END;
	memTag := ADDRESS OF atags[atag + 2];
	CPU.IdentityMapMemory (memTag.size); CPU.EnableMemoryManagementUnit;
	HeapManager.Initialize (heap, ADDRESS OF KernelEnd, memTag.start + memTag.size);
	memory := memTag.start + memTag.size - ADDRESS OF KernelEnd;
END InitMemory;

PROCEDURE Blink-(num, speed: SIGNED32);
VAR i,j: SIGNED32;
BEGIN {UNCOOPERATIVE, UNCHECKED}
	FOR  j:= 1 TO num DO
		LED (0, TRUE); LED(1, FALSE);
		FOR i := 0 TO speed*1000000 DO END;
		LED(0, FALSE); LED(1, TRUE);
		FOR i := 0 TO speed*1000000 DO END;
	END;
END Blink;

PROCEDURE StoreActivity-;
BEGIN {UNCOOPERATIVE, UNCHECKED}
END StoreActivity;

PROCEDURE RestoreActivity-;
BEGIN {UNCOOPERATIVE, UNCHECKED}
END RestoreActivity;

PROCEDURE Initialize-;
VAR i: SIGNED32;
BEGIN {UNCOOPERATIVE, UNCHECKED}
	SYSTEM.SetActivity (NIL);
	CPU.Initialize; InitTrace; InitMemory;
	frequency := Timer.GetFrequency () DIV 1000;
END Initialize;

PROCEDURE Terminate-;
BEGIN {UNCOOPERATIVE, UNCHECKED}
	Interrupts.Terminate;
	LED (0, FALSE);
END Terminate;

PROCEDURE {NOPAF, INITIAL, FIXED(8000H)} KernelBegin;
CODE
	MOV	SP, #8000H
	LDR	R0, [PC, #tags-$-8]
	STR	R2, [R0, #0]
	B		skip
tags:
	d32	atags
skip:
END KernelBegin;

PROCEDURE {NOPAF, FINAL, ALIGNED(32)} KernelEnd;
CODE
END KernelEnd;

BEGIN {UNCHECKED}
	Trace.String ("Version "); Trace.String (SYSTEM.Date); Trace.String (" (");
	Trace.Int (memory DIV (1024 * 1024), 0); Trace.String (" MB RAM, GC, ");
	Trace.Int (Processors.count, 0); Trace.String (" CPU");
	IF Processors.count > 1 THEN Trace.Char ('s') END; Trace.Char (')'); Trace.Ln;
END Environment.
